('C:\\Users\\super\\OneDrive\\OneDrive\\003.Program\\GitLab\\pythontoexe\\test_py_file\\.PyToExe_Output\\build\\mains\\PYZ-00.pyz',
 [('pkg_resources',
   'C:\\Users\\super\\AppData\\Local\\Programs\\Python\\Python310\\lib\\site-packages\\pkg_resources\\__init__.py',
   'PYMODULE'),
  ('packaging.version',
   'C:\\Users\\super\\AppData\\Local\\Programs\\Python\\Python310\\lib\\site-packages\\packaging\\version.py',
   'PYMODULE'),
  ('typing',
   'C:\\Users\\super\\AppData\\Local\\Programs\\Python\\Python310\\lib\\typing.py',
   'PYMODULE'),
  ('contextlib',
   'C:\\Users\\super\\AppData\\Local\\Programs\\Python\\Python310\\lib\\contextlib.py',
   'PYMODULE'),
  ('packaging.utils',
   'C:\\Users\\super\\AppData\\Local\\Programs\\Python\\Python310\\lib\\site-packages\\packaging\\utils.py',
   'PYMODULE'),
  ('packaging.tags',
   'C:\\Users\\super\\AppData\\Local\\Programs\\Python\\Python310\\lib\\site-packages\\packaging\\tags.py',
   'PYMODULE'),
  ('logging',
   'C:\\Users\\super\\AppData\\Local\\Programs\\Python\\Python310\\lib\\logging\\__init__.py',
   'PYMODULE'),
  ('pickle',
   'C:\\Users\\super\\AppData\\Local\\Programs\\Python\\Python310\\lib\\pickle.py',
   'PYMODULE'),
  ('pprint',
   'C:\\Users\\super\\AppData\\Local\\Programs\\Python\\Python310\\lib\\pprint.py',
   'PYMODULE'),
  ('dataclasses',
   'C:\\Users\\super\\AppData\\Local\\Programs\\Python\\Python310\\lib\\dataclasses.py',
   'PYMODULE'),
  ('copy',
   'C:\\Users\\super\\AppData\\Local\\Programs\\Python\\Python310\\lib\\copy.py',
   'PYMODULE'),
  ('_compat_pickle',
   'C:\\Users\\super\\AppData\\Local\\Programs\\Python\\Python310\\lib\\_compat_pickle.py',
   'PYMODULE'),
  ('struct',
   'C:\\Users\\super\\AppData\\Local\\Programs\\Python\\Python310\\lib\\struct.py',
   'PYMODULE'),
  ('threading',
   'C:\\Users\\super\\AppData\\Local\\Programs\\Python\\Python310\\lib\\threading.py',
   'PYMODULE'),
  ('_threading_local',
   'C:\\Users\\super\\AppData\\Local\\Programs\\Python\\Python310\\lib\\_threading_local.py',
   'PYMODULE'),
  ('string',
   'C:\\Users\\super\\AppData\\Local\\Programs\\Python\\Python310\\lib\\string.py',
   'PYMODULE'),
  ('packaging.specifiers',
   'C:\\Users\\super\\AppData\\Local\\Programs\\Python\\Python310\\lib\\site-packages\\packaging\\specifiers.py',
   'PYMODULE'),
  ('packaging.requirements',
   'C:\\Users\\super\\AppData\\Local\\Programs\\Python\\Python310\\lib\\site-packages\\packaging\\requirements.py',
   'PYMODULE'),
  ('pyparsing',
   'C:\\Users\\super\\AppData\\Local\\Programs\\Python\\Python310\\lib\\site-packages\\pyparsing\\__init__.py',
   'PYMODULE'),
  ('pyparsing.common',
   'C:\\Users\\super\\AppData\\Local\\Programs\\Python\\Python310\\lib\\site-packages\\pyparsing\\common.py',
   'PYMODULE'),
  ('datetime',
   'C:\\Users\\super\\AppData\\Local\\Programs\\Python\\Python310\\lib\\datetime.py',
   'PYMODULE'),
  ('_strptime',
   'C:\\Users\\super\\AppData\\Local\\Programs\\Python\\Python310\\lib\\_strptime.py',
   'PYMODULE'),
  ('calendar',
   'C:\\Users\\super\\AppData\\Local\\Programs\\Python\\Python310\\lib\\calendar.py',
   'PYMODULE'),
  ('argparse',
   'C:\\Users\\super\\AppData\\Local\\Programs\\Python\\Python310\\lib\\argparse.py',
   'PYMODULE'),
  ('shutil',
   'C:\\Users\\super\\AppData\\Local\\Programs\\Python\\Python310\\lib\\shutil.py',
   'PYMODULE'),
  ('tarfile',
   'C:\\Users\\super\\AppData\\Local\\Programs\\Python\\Python310\\lib\\tarfile.py',
   'PYMODULE'),
  ('gzip',
   'C:\\Users\\super\\AppData\\Local\\Programs\\Python\\Python310\\lib\\gzip.py',
   'PYMODULE'),
  ('_compression',
   'C:\\Users\\super\\AppData\\Local\\Programs\\Python\\Python310\\lib\\_compression.py',
   'PYMODULE'),
  ('lzma',
   'C:\\Users\\super\\AppData\\Local\\Programs\\Python\\Python310\\lib\\lzma.py',
   'PYMODULE'),
  ('bz2',
   'C:\\Users\\super\\AppData\\Local\\Programs\\Python\\Python310\\lib\\bz2.py',
   'PYMODULE'),
  ('gettext',
   'C:\\Users\\super\\AppData\\Local\\Programs\\Python\\Python310\\lib\\gettext.py',
   'PYMODULE'),
  ('pyparsing.testing',
   'C:\\Users\\super\\AppData\\Local\\Programs\\Python\\Python310\\lib\\site-packages\\pyparsing\\testing.py',
   'PYMODULE'),
  ('pyparsing.unicode',
   'C:\\Users\\super\\AppData\\Local\\Programs\\Python\\Python310\\lib\\site-packages\\pyparsing\\unicode.py',
   'PYMODULE'),
  ('pyparsing.helpers',
   'C:\\Users\\super\\AppData\\Local\\Programs\\Python\\Python310\\lib\\site-packages\\pyparsing\\helpers.py',
   'PYMODULE'),
  ('html.entities',
   'C:\\Users\\super\\AppData\\Local\\Programs\\Python\\Python310\\lib\\html\\entities.py',
   'PYMODULE'),
  ('html',
   'C:\\Users\\super\\AppData\\Local\\Programs\\Python\\Python310\\lib\\html\\__init__.py',
   'PYMODULE'),
  ('pyparsing.results',
   'C:\\Users\\super\\AppData\\Local\\Programs\\Python\\Python310\\lib\\site-packages\\pyparsing\\results.py',
   'PYMODULE'),
  ('pyparsing.core',
   'C:\\Users\\super\\AppData\\Local\\Programs\\Python\\Python310\\lib\\site-packages\\pyparsing\\core.py',
   'PYMODULE'),
  ('pyparsing.diagram',
   'C:\\Users\\super\\AppData\\Local\\Programs\\Python\\Python310\\lib\\site-packages\\pyparsing\\diagram\\__init__.py',
   'PYMODULE'),
  ('pdb',
   'C:\\Users\\super\\AppData\\Local\\Programs\\Python\\Python310\\lib\\pdb.py',
   'PYMODULE'),
  ('getopt',
   'C:\\Users\\super\\AppData\\Local\\Programs\\Python\\Python310\\lib\\getopt.py',
   'PYMODULE'),
  ('pydoc',
   'C:\\Users\\super\\AppData\\Local\\Programs\\Python\\Python310\\lib\\pydoc.py',
   'PYMODULE'),
  ('webbrowser',
   'C:\\Users\\super\\AppData\\Local\\Programs\\Python\\Python310\\lib\\webbrowser.py',
   'PYMODULE'),
  ('socket',
   'C:\\Users\\super\\AppData\\Local\\Programs\\Python\\Python310\\lib\\socket.py',
   'PYMODULE'),
  ('selectors',
   'C:\\Users\\super\\AppData\\Local\\Programs\\Python\\Python310\\lib\\selectors.py',
   'PYMODULE'),
  ('email.message',
   'C:\\Users\\super\\AppData\\Local\\Programs\\Python\\Python310\\lib\\email\\message.py',
   'PYMODULE'),
  ('email.policy',
   'C:\\Users\\super\\AppData\\Local\\Programs\\Python\\Python310\\lib\\email\\policy.py',
   'PYMODULE'),
  ('email.contentmanager',
   'C:\\Users\\super\\AppData\\Local\\Programs\\Python\\Python310\\lib\\email\\contentmanager.py',
   'PYMODULE'),
  ('email.quoprimime',
   'C:\\Users\\super\\AppData\\Local\\Programs\\Python\\Python310\\lib\\email\\quoprimime.py',
   'PYMODULE'),
  ('email.headerregistry',
   'C:\\Users\\super\\AppData\\Local\\Programs\\Python\\Python310\\lib\\email\\headerregistry.py',
   'PYMODULE'),
  ('email._header_value_parser',
   'C:\\Users\\super\\AppData\\Local\\Programs\\Python\\Python310\\lib\\email\\_header_value_parser.py',
   'PYMODULE'),
  ('email.iterators',
   'C:\\Users\\super\\AppData\\Local\\Programs\\Python\\Python310\\lib\\email\\iterators.py',
   'PYMODULE'),
  ('email.generator',
   'C:\\Users\\super\\AppData\\Local\\Programs\\Python\\Python310\\lib\\email\\generator.py',
   'PYMODULE'),
  ('random',
   'C:\\Users\\super\\AppData\\Local\\Programs\\Python\\Python310\\lib\\random.py',
   'PYMODULE'),
  ('statistics',
   'C:\\Users\\super\\AppData\\Local\\Programs\\Python\\Python310\\lib\\statistics.py',
   'PYMODULE'),
  ('decimal',
   'C:\\Users\\super\\AppData\\Local\\Programs\\Python\\Python310\\lib\\decimal.py',
   'PYMODULE'),
  ('_pydecimal',
   'C:\\Users\\super\\AppData\\Local\\Programs\\Python\\Python310\\lib\\_pydecimal.py',
   'PYMODULE'),
  ('contextvars',
   'C:\\Users\\super\\AppData\\Local\\Programs\\Python\\Python310\\lib\\contextvars.py',
   'PYMODULE'),
  ('fractions',
   'C:\\Users\\super\\AppData\\Local\\Programs\\Python\\Python310\\lib\\fractions.py',
   'PYMODULE'),
  ('numbers',
   'C:\\Users\\super\\AppData\\Local\\Programs\\Python\\Python310\\lib\\numbers.py',
   'PYMODULE'),
  ('hashlib',
   'C:\\Users\\super\\AppData\\Local\\Programs\\Python\\Python310\\lib\\hashlib.py',
   'PYMODULE'),
  ('bisect',
   'C:\\Users\\super\\AppData\\Local\\Programs\\Python\\Python310\\lib\\bisect.py',
   'PYMODULE'),
  ('email._encoded_words',
   'C:\\Users\\super\\AppData\\Local\\Programs\\Python\\Python310\\lib\\email\\_encoded_words.py',
   'PYMODULE'),
  ('base64',
   'C:\\Users\\super\\AppData\\Local\\Programs\\Python\\Python310\\lib\\base64.py',
   'PYMODULE'),
  ('email.charset',
   'C:\\Users\\super\\AppData\\Local\\Programs\\Python\\Python310\\lib\\email\\charset.py',
   'PYMODULE'),
  ('email.encoders',
   'C:\\Users\\super\\AppData\\Local\\Programs\\Python\\Python310\\lib\\email\\encoders.py',
   'PYMODULE'),
  ('email.base64mime',
   'C:\\Users\\super\\AppData\\Local\\Programs\\Python\\Python310\\lib\\email\\base64mime.py',
   'PYMODULE'),
  ('email._policybase',
   'C:\\Users\\super\\AppData\\Local\\Programs\\Python\\Python310\\lib\\email\\_policybase.py',
   'PYMODULE'),
  ('email.header',
   'C:\\Users\\super\\AppData\\Local\\Programs\\Python\\Python310\\lib\\email\\header.py',
   'PYMODULE'),
  ('email.errors',
   'C:\\Users\\super\\AppData\\Local\\Programs\\Python\\Python310\\lib\\email\\errors.py',
   'PYMODULE'),
  ('email.utils',
   'C:\\Users\\super\\AppData\\Local\\Programs\\Python\\Python310\\lib\\email\\utils.py',
   'PYMODULE'),
  ('email._parseaddr',
   'C:\\Users\\super\\AppData\\Local\\Programs\\Python\\Python310\\lib\\email\\_parseaddr.py',
   'PYMODULE'),
  ('email',
   'C:\\Users\\super\\AppData\\Local\\Programs\\Python\\Python310\\lib\\email\\__init__.py',
   'PYMODULE'),
  ('quopri',
   'C:\\Users\\super\\AppData\\Local\\Programs\\Python\\Python310\\lib\\quopri.py',
   'PYMODULE'),
  ('uu',
   'C:\\Users\\super\\AppData\\Local\\Programs\\Python\\Python310\\lib\\uu.py',
   'PYMODULE'),
  ('optparse',
   'C:\\Users\\super\\AppData\\Local\\Programs\\Python\\Python310\\lib\\optparse.py',
   'PYMODULE'),
  ('http.server',
   'C:\\Users\\super\\AppData\\Local\\Programs\\Python\\Python310\\lib\\http\\server.py',
   'PYMODULE'),
  ('http',
   'C:\\Users\\super\\AppData\\Local\\Programs\\Python\\Python310\\lib\\http\\__init__.py',
   'PYMODULE'),
  ('socketserver',
   'C:\\Users\\super\\AppData\\Local\\Programs\\Python\\Python310\\lib\\socketserver.py',
   'PYMODULE'),
  ('mimetypes',
   'C:\\Users\\super\\AppData\\Local\\Programs\\Python\\Python310\\lib\\mimetypes.py',
   'PYMODULE'),
  ('http.client',
   'C:\\Users\\super\\AppData\\Local\\Programs\\Python\\Python310\\lib\\http\\client.py',
   'PYMODULE'),
  ('ssl',
   'C:\\Users\\super\\AppData\\Local\\Programs\\Python\\Python310\\lib\\ssl.py',
   'PYMODULE'),
  ('pydoc_data.topics',
   'C:\\Users\\super\\AppData\\Local\\Programs\\Python\\Python310\\lib\\pydoc_data\\topics.py',
   'PYMODULE'),
  ('pydoc_data',
   'C:\\Users\\super\\AppData\\Local\\Programs\\Python\\Python310\\lib\\pydoc_data\\__init__.py',
   'PYMODULE'),
  ('tty',
   'C:\\Users\\super\\AppData\\Local\\Programs\\Python\\Python310\\lib\\tty.py',
   'PYMODULE'),
  ('subprocess',
   'C:\\Users\\super\\AppData\\Local\\Programs\\Python\\Python310\\lib\\subprocess.py',
   'PYMODULE'),
  ('importlib.util',
   'C:\\Users\\super\\AppData\\Local\\Programs\\Python\\Python310\\lib\\importlib\\util.py',
   'PYMODULE'),
  ('importlib._abc',
   'C:\\Users\\super\\AppData\\Local\\Programs\\Python\\Python310\\lib\\importlib\\_abc.py',
   'PYMODULE'),
  ('importlib._bootstrap_external',
   'C:\\Users\\super\\AppData\\Local\\Programs\\Python\\Python310\\lib\\importlib\\_bootstrap_external.py',
   'PYMODULE'),
  ('importlib.metadata',
   'C:\\Users\\super\\AppData\\Local\\Programs\\Python\\Python310\\lib\\importlib\\metadata\\__init__.py',
   'PYMODULE'),
  ('importlib.abc',
   'C:\\Users\\super\\AppData\\Local\\Programs\\Python\\Python310\\lib\\importlib\\abc.py',
   'PYMODULE'),
  ('importlib.metadata._itertools',
   'C:\\Users\\super\\AppData\\Local\\Programs\\Python\\Python310\\lib\\importlib\\metadata\\_itertools.py',
   'PYMODULE'),
  ('importlib.metadata._functools',
   'C:\\Users\\super\\AppData\\Local\\Programs\\Python\\Python310\\lib\\importlib\\metadata\\_functools.py',
   'PYMODULE'),
  ('importlib.metadata._collections',
   'C:\\Users\\super\\AppData\\Local\\Programs\\Python\\Python310\\lib\\importlib\\metadata\\_collections.py',
   'PYMODULE'),
  ('importlib.metadata._meta',
   'C:\\Users\\super\\AppData\\Local\\Programs\\Python\\Python310\\lib\\importlib\\metadata\\_meta.py',
   'PYMODULE'),
  ('importlib.metadata._adapters',
   'C:\\Users\\super\\AppData\\Local\\Programs\\Python\\Python310\\lib\\importlib\\metadata\\_adapters.py',
   'PYMODULE'),
  ('importlib.metadata._text',
   'C:\\Users\\super\\AppData\\Local\\Programs\\Python\\Python310\\lib\\importlib\\metadata\\_text.py',
   'PYMODULE'),
  ('csv',
   'C:\\Users\\super\\AppData\\Local\\Programs\\Python\\Python310\\lib\\csv.py',
   'PYMODULE'),
  ('importlib.readers',
   'C:\\Users\\super\\AppData\\Local\\Programs\\Python\\Python310\\lib\\importlib\\readers.py',
   'PYMODULE'),
  ('importlib._bootstrap',
   'C:\\Users\\super\\AppData\\Local\\Programs\\Python\\Python310\\lib\\importlib\\_bootstrap.py',
   'PYMODULE'),
  ('runpy',
   'C:\\Users\\super\\AppData\\Local\\Programs\\Python\\Python310\\lib\\runpy.py',
   'PYMODULE'),
  ('shlex',
   'C:\\Users\\super\\AppData\\Local\\Programs\\Python\\Python310\\lib\\shlex.py',
   'PYMODULE'),
  ('signal',
   'C:\\Users\\super\\AppData\\Local\\Programs\\Python\\Python310\\lib\\signal.py',
   'PYMODULE'),
  ('glob',
   'C:\\Users\\super\\AppData\\Local\\Programs\\Python\\Python310\\lib\\glob.py',
   'PYMODULE'),
  ('code',
   'C:\\Users\\super\\AppData\\Local\\Programs\\Python\\Python310\\lib\\code.py',
   'PYMODULE'),
  ('codeop',
   'C:\\Users\\super\\AppData\\Local\\Programs\\Python\\Python310\\lib\\codeop.py',
   'PYMODULE'),
  ('__future__',
   'C:\\Users\\super\\AppData\\Local\\Programs\\Python\\Python310\\lib\\__future__.py',
   'PYMODULE'),
  ('dis',
   'C:\\Users\\super\\AppData\\Local\\Programs\\Python\\Python310\\lib\\dis.py',
   'PYMODULE'),
  ('opcode',
   'C:\\Users\\super\\AppData\\Local\\Programs\\Python\\Python310\\lib\\opcode.py',
   'PYMODULE'),
  ('bdb',
   'C:\\Users\\super\\AppData\\Local\\Programs\\Python\\Python310\\lib\\bdb.py',
   'PYMODULE'),
  ('cmd',
   'C:\\Users\\super\\AppData\\Local\\Programs\\Python\\Python310\\lib\\cmd.py',
   'PYMODULE'),
  ('pyparsing.actions',
   'C:\\Users\\super\\AppData\\Local\\Programs\\Python\\Python310\\lib\\site-packages\\pyparsing\\actions.py',
   'PYMODULE'),
  ('pyparsing.exceptions',
   'C:\\Users\\super\\AppData\\Local\\Programs\\Python\\Python310\\lib\\site-packages\\pyparsing\\exceptions.py',
   'PYMODULE'),
  ('pyparsing.util',
   'C:\\Users\\super\\AppData\\Local\\Programs\\Python\\Python310\\lib\\site-packages\\pyparsing\\util.py',
   'PYMODULE'),
  ('packaging.markers',
   'C:\\Users\\super\\AppData\\Local\\Programs\\Python\\Python310\\lib\\site-packages\\packaging\\markers.py',
   'PYMODULE'),
  ('packaging._structures',
   'C:\\Users\\super\\AppData\\Local\\Programs\\Python\\Python310\\lib\\site-packages\\packaging\\_structures.py',
   'PYMODULE'),
  ('packaging._musllinux',
   'C:\\Users\\super\\AppData\\Local\\Programs\\Python\\Python310\\lib\\site-packages\\packaging\\_musllinux.py',
   'PYMODULE'),
  ('packaging._manylinux',
   'C:\\Users\\super\\AppData\\Local\\Programs\\Python\\Python310\\lib\\site-packages\\packaging\\_manylinux.py',
   'PYMODULE'),
  ('ctypes',
   'C:\\Users\\super\\AppData\\Local\\Programs\\Python\\Python310\\lib\\ctypes\\__init__.py',
   'PYMODULE'),
  ('ctypes._endian',
   'C:\\Users\\super\\AppData\\Local\\Programs\\Python\\Python310\\lib\\ctypes\\_endian.py',
   'PYMODULE'),
  ('packaging.__about__',
   'C:\\Users\\super\\AppData\\Local\\Programs\\Python\\Python310\\lib\\site-packages\\packaging\\__about__.py',
   'PYMODULE'),
  ('packaging',
   'C:\\Users\\super\\AppData\\Local\\Programs\\Python\\Python310\\lib\\site-packages\\packaging\\__init__.py',
   'PYMODULE'),
  ('pkg_resources._vendor.zipp',
   'C:\\Users\\super\\AppData\\Local\\Programs\\Python\\Python310\\lib\\site-packages\\pkg_resources\\_vendor\\zipp.py',
   'PYMODULE'),
  ('pkg_resources._vendor.pyparsing.util',
   'C:\\Users\\super\\AppData\\Local\\Programs\\Python\\Python310\\lib\\site-packages\\pkg_resources\\_vendor\\pyparsing\\util.py',
   'PYMODULE'),
  ('pkg_resources._vendor.pyparsing.unicode',
   'C:\\Users\\super\\AppData\\Local\\Programs\\Python\\Python310\\lib\\site-packages\\pkg_resources\\_vendor\\pyparsing\\unicode.py',
   'PYMODULE'),
  ('pkg_resources._vendor.pyparsing.testing',
   'C:\\Users\\super\\AppData\\Local\\Programs\\Python\\Python310\\lib\\site-packages\\pkg_resources\\_vendor\\pyparsing\\testing.py',
   'PYMODULE'),
  ('pkg_resources._vendor.pyparsing.results',
   'C:\\Users\\super\\AppData\\Local\\Programs\\Python\\Python310\\lib\\site-packages\\pkg_resources\\_vendor\\pyparsing\\results.py',
   'PYMODULE'),
  ('pkg_resources._vendor.pyparsing.helpers',
   'C:\\Users\\super\\AppData\\Local\\Programs\\Python\\Python310\\lib\\site-packages\\pkg_resources\\_vendor\\pyparsing\\helpers.py',
   'PYMODULE'),
  ('pkg_resources._vendor.pyparsing.exceptions',
   'C:\\Users\\super\\AppData\\Local\\Programs\\Python\\Python310\\lib\\site-packages\\pkg_resources\\_vendor\\pyparsing\\exceptions.py',
   'PYMODULE'),
  ('pkg_resources._vendor.pyparsing.core',
   'C:\\Users\\super\\AppData\\Local\\Programs\\Python\\Python310\\lib\\site-packages\\pkg_resources\\_vendor\\pyparsing\\core.py',
   'PYMODULE'),
  ('pkg_resources._vendor.pyparsing.diagram',
   'C:\\Users\\super\\AppData\\Local\\Programs\\Python\\Python310\\lib\\site-packages\\pkg_resources\\_vendor\\pyparsing\\diagram\\__init__.py',
   'PYMODULE'),
  ('pkg_resources._vendor.pyparsing.common',
   'C:\\Users\\super\\AppData\\Local\\Programs\\Python\\Python310\\lib\\site-packages\\pkg_resources\\_vendor\\pyparsing\\common.py',
   'PYMODULE'),
  ('pkg_resources._vendor.pyparsing.actions',
   'C:\\Users\\super\\AppData\\Local\\Programs\\Python\\Python310\\lib\\site-packages\\pkg_resources\\_vendor\\pyparsing\\actions.py',
   'PYMODULE'),
  ('pkg_resources._vendor.pyparsing',
   'C:\\Users\\super\\AppData\\Local\\Programs\\Python\\Python310\\lib\\site-packages\\pkg_resources\\_vendor\\pyparsing\\__init__.py',
   'PYMODULE'),
  ('pkg_resources._vendor.packaging.version',
   'C:\\Users\\super\\AppData\\Local\\Programs\\Python\\Python310\\lib\\site-packages\\pkg_resources\\_vendor\\packaging\\version.py',
   'PYMODULE'),
  ('pkg_resources._vendor.packaging.utils',
   'C:\\Users\\super\\AppData\\Local\\Programs\\Python\\Python310\\lib\\site-packages\\pkg_resources\\_vendor\\packaging\\utils.py',
   'PYMODULE'),
  ('pkg_resources._vendor.packaging.tags',
   'C:\\Users\\super\\AppData\\Local\\Programs\\Python\\Python310\\lib\\site-packages\\pkg_resources\\_vendor\\packaging\\tags.py',
   'PYMODULE'),
  ('pkg_resources._vendor.packaging.specifiers',
   'C:\\Users\\super\\AppData\\Local\\Programs\\Python\\Python310\\lib\\site-packages\\pkg_resources\\_vendor\\packaging\\specifiers.py',
   'PYMODULE'),
  ('pkg_resources._vendor.packaging.requirements',
   'C:\\Users\\super\\AppData\\Local\\Programs\\Python\\Python310\\lib\\site-packages\\pkg_resources\\_vendor\\packaging\\requirements.py',
   'PYMODULE'),
  ('pkg_resources._vendor.packaging.markers',
   'C:\\Users\\super\\AppData\\Local\\Programs\\Python\\Python310\\lib\\site-packages\\pkg_resources\\_vendor\\packaging\\markers.py',
   'PYMODULE'),
  ('pkg_resources._vendor.packaging._structures',
   'C:\\Users\\super\\AppData\\Local\\Programs\\Python\\Python310\\lib\\site-packages\\pkg_resources\\_vendor\\packaging\\_structures.py',
   'PYMODULE'),
  ('pkg_resources._vendor.packaging._musllinux',
   'C:\\Users\\super\\AppData\\Local\\Programs\\Python\\Python310\\lib\\site-packages\\pkg_resources\\_vendor\\packaging\\_musllinux.py',
   'PYMODULE'),
  ('pkg_resources._vendor.packaging._manylinux',
   'C:\\Users\\super\\AppData\\Local\\Programs\\Python\\Python310\\lib\\site-packages\\pkg_resources\\_vendor\\packaging\\_manylinux.py',
   'PYMODULE'),
  ('pkg_resources._vendor.packaging.__about__',
   'C:\\Users\\super\\AppData\\Local\\Programs\\Python\\Python310\\lib\\site-packages\\pkg_resources\\_vendor\\packaging\\__about__.py',
   'PYMODULE'),
  ('pkg_resources._vendor.packaging',
   'C:\\Users\\super\\AppData\\Local\\Programs\\Python\\Python310\\lib\\site-packages\\pkg_resources\\_vendor\\packaging\\__init__.py',
   'PYMODULE'),
  ('pkg_resources._vendor.more_itertools.recipes',
   'C:\\Users\\super\\AppData\\Local\\Programs\\Python\\Python310\\lib\\site-packages\\pkg_resources\\_vendor\\more_itertools\\recipes.py',
   'PYMODULE'),
  ('pkg_resources._vendor.more_itertools.more',
   'C:\\Users\\super\\AppData\\Local\\Programs\\Python\\Python310\\lib\\site-packages\\pkg_resources\\_vendor\\more_itertools\\more.py',
   'PYMODULE'),
  ('queue',
   'C:\\Users\\super\\AppData\\Local\\Programs\\Python\\Python310\\lib\\queue.py',
   'PYMODULE'),
  ('pkg_resources._vendor.more_itertools',
   'C:\\Users\\super\\AppData\\Local\\Programs\\Python\\Python310\\lib\\site-packages\\pkg_resources\\_vendor\\more_itertools\\__init__.py',
   'PYMODULE'),
  ('pkg_resources._vendor.jaraco.text',
   'C:\\Users\\super\\AppData\\Local\\Programs\\Python\\Python310\\lib\\site-packages\\pkg_resources\\_vendor\\jaraco\\text\\__init__.py',
   'PYMODULE'),
  ('importlib.resources',
   'C:\\Users\\super\\AppData\\Local\\Programs\\Python\\Python310\\lib\\importlib\\resources.py',
   'PYMODULE'),
  ('importlib._common',
   'C:\\Users\\super\\AppData\\Local\\Programs\\Python\\Python310\\lib\\importlib\\_common.py',
   'PYMODULE'),
  ('importlib._adapters',
   'C:\\Users\\super\\AppData\\Local\\Programs\\Python\\Python310\\lib\\importlib\\_adapters.py',
   'PYMODULE'),
  ('pkg_resources._vendor.jaraco.functools',
   'C:\\Users\\super\\AppData\\Local\\Programs\\Python\\Python310\\lib\\site-packages\\pkg_resources\\_vendor\\jaraco\\functools.py',
   'PYMODULE'),
  ('pkg_resources._vendor.jaraco.context',
   'C:\\Users\\super\\AppData\\Local\\Programs\\Python\\Python310\\lib\\site-packages\\pkg_resources\\_vendor\\jaraco\\context.py',
   'PYMODULE'),
  ('pkg_resources._vendor.jaraco',
   'C:\\Users\\super\\AppData\\Local\\Programs\\Python\\Python310\\lib\\site-packages\\pkg_resources\\_vendor\\jaraco\\__init__.py',
   'PYMODULE'),
  ('pkg_resources._vendor.importlib_resources.simple',
   'C:\\Users\\super\\AppData\\Local\\Programs\\Python\\Python310\\lib\\site-packages\\pkg_resources\\_vendor\\importlib_resources\\simple.py',
   'PYMODULE'),
  ('pkg_resources._vendor.importlib_resources.readers',
   'C:\\Users\\super\\AppData\\Local\\Programs\\Python\\Python310\\lib\\site-packages\\pkg_resources\\_vendor\\importlib_resources\\readers.py',
   'PYMODULE'),
  ('pkg_resources._vendor.importlib_resources.abc',
   'C:\\Users\\super\\AppData\\Local\\Programs\\Python\\Python310\\lib\\site-packages\\pkg_resources\\_vendor\\importlib_resources\\abc.py',
   'PYMODULE'),
  ('pkg_resources._vendor.importlib_resources._legacy',
   'C:\\Users\\super\\AppData\\Local\\Programs\\Python\\Python310\\lib\\site-packages\\pkg_resources\\_vendor\\importlib_resources\\_legacy.py',
   'PYMODULE'),
  ('pkg_resources._vendor.importlib_resources._itertools',
   'C:\\Users\\super\\AppData\\Local\\Programs\\Python\\Python310\\lib\\site-packages\\pkg_resources\\_vendor\\importlib_resources\\_itertools.py',
   'PYMODULE'),
  ('pkg_resources._vendor.importlib_resources._compat',
   'C:\\Users\\super\\AppData\\Local\\Programs\\Python\\Python310\\lib\\site-packages\\pkg_resources\\_vendor\\importlib_resources\\_compat.py',
   'PYMODULE'),
  ('pkg_resources._vendor.importlib_resources._common',
   'C:\\Users\\super\\AppData\\Local\\Programs\\Python\\Python310\\lib\\site-packages\\pkg_resources\\_vendor\\importlib_resources\\_common.py',
   'PYMODULE'),
  ('pkg_resources._vendor.importlib_resources._adapters',
   'C:\\Users\\super\\AppData\\Local\\Programs\\Python\\Python310\\lib\\site-packages\\pkg_resources\\_vendor\\importlib_resources\\_adapters.py',
   'PYMODULE'),
  ('pkg_resources._vendor.importlib_resources',
   'C:\\Users\\super\\AppData\\Local\\Programs\\Python\\Python310\\lib\\site-packages\\pkg_resources\\_vendor\\importlib_resources\\__init__.py',
   'PYMODULE'),
  ('pkg_resources._vendor.appdirs',
   'C:\\Users\\super\\AppData\\Local\\Programs\\Python\\Python310\\lib\\site-packages\\pkg_resources\\_vendor\\appdirs.py',
   'PYMODULE'),
  ('pkg_resources._vendor',
   'C:\\Users\\super\\AppData\\Local\\Programs\\Python\\Python310\\lib\\site-packages\\pkg_resources\\_vendor\\__init__.py',
   'PYMODULE'),
  ('sysconfig',
   'C:\\Users\\super\\AppData\\Local\\Programs\\Python\\Python310\\lib\\sysconfig.py',
   'PYMODULE'),
  ('_aix_support',
   'C:\\Users\\super\\AppData\\Local\\Programs\\Python\\Python310\\lib\\_aix_support.py',
   'PYMODULE'),
  ('_bootsubprocess',
   'C:\\Users\\super\\AppData\\Local\\Programs\\Python\\Python310\\lib\\_bootsubprocess.py',
   'PYMODULE'),
  ('pkg_resources.extern',
   'C:\\Users\\super\\AppData\\Local\\Programs\\Python\\Python310\\lib\\site-packages\\pkg_resources\\extern\\__init__.py',
   'PYMODULE'),
  ('importlib.machinery',
   'C:\\Users\\super\\AppData\\Local\\Programs\\Python\\Python310\\lib\\importlib\\machinery.py',
   'PYMODULE'),
  ('imp',
   'C:\\Users\\super\\AppData\\Local\\Programs\\Python\\Python310\\lib\\imp.py',
   'PYMODULE'),
  ('importlib',
   'C:\\Users\\super\\AppData\\Local\\Programs\\Python\\Python310\\lib\\importlib\\__init__.py',
   'PYMODULE'),
  ('inspect',
   'C:\\Users\\super\\AppData\\Local\\Programs\\Python\\Python310\\lib\\inspect.py',
   'PYMODULE'),
  ('ast',
   'C:\\Users\\super\\AppData\\Local\\Programs\\Python\\Python310\\lib\\ast.py',
   'PYMODULE'),
  ('textwrap',
   'C:\\Users\\super\\AppData\\Local\\Programs\\Python\\Python310\\lib\\textwrap.py',
   'PYMODULE'),
  ('tempfile',
   'C:\\Users\\super\\AppData\\Local\\Programs\\Python\\Python310\\lib\\tempfile.py',
   'PYMODULE'),
  ('email.parser',
   'C:\\Users\\super\\AppData\\Local\\Programs\\Python\\Python310\\lib\\email\\parser.py',
   'PYMODULE'),
  ('email.feedparser',
   'C:\\Users\\super\\AppData\\Local\\Programs\\Python\\Python310\\lib\\email\\feedparser.py',
   'PYMODULE'),
  ('plistlib',
   'C:\\Users\\super\\AppData\\Local\\Programs\\Python\\Python310\\lib\\plistlib.py',
   'PYMODULE'),
  ('xml.parsers.expat',
   'C:\\Users\\super\\AppData\\Local\\Programs\\Python\\Python310\\lib\\xml\\parsers\\expat.py',
   'PYMODULE'),
  ('xml.parsers',
   'C:\\Users\\super\\AppData\\Local\\Programs\\Python\\Python310\\lib\\xml\\parsers\\__init__.py',
   'PYMODULE'),
  ('xml',
   'C:\\Users\\super\\AppData\\Local\\Programs\\Python\\Python310\\lib\\xml\\__init__.py',
   'PYMODULE'),
  ('xml.sax.expatreader',
   'C:\\Users\\super\\AppData\\Local\\Programs\\Python\\Python310\\lib\\xml\\sax\\expatreader.py',
   'PYMODULE'),
  ('xml.sax.saxutils',
   'C:\\Users\\super\\AppData\\Local\\Programs\\Python\\Python310\\lib\\xml\\sax\\saxutils.py',
   'PYMODULE'),
  ('xml.sax',
   'C:\\Users\\super\\AppData\\Local\\Programs\\Python\\Python310\\lib\\xml\\sax\\__init__.py',
   'PYMODULE'),
  ('xml.sax.handler',
   'C:\\Users\\super\\AppData\\Local\\Programs\\Python\\Python310\\lib\\xml\\sax\\handler.py',
   'PYMODULE'),
  ('xml.sax._exceptions',
   'C:\\Users\\super\\AppData\\Local\\Programs\\Python\\Python310\\lib\\xml\\sax\\_exceptions.py',
   'PYMODULE'),
  ('xml.sax.xmlreader',
   'C:\\Users\\super\\AppData\\Local\\Programs\\Python\\Python310\\lib\\xml\\sax\\xmlreader.py',
   'PYMODULE'),
  ('platform',
   'C:\\Users\\super\\AppData\\Local\\Programs\\Python\\Python310\\lib\\platform.py',
   'PYMODULE'),
  ('pkgutil',
   'C:\\Users\\super\\AppData\\Local\\Programs\\Python\\Python310\\lib\\pkgutil.py',
   'PYMODULE'),
  ('zipimport',
   'C:\\Users\\super\\AppData\\Local\\Programs\\Python\\Python310\\lib\\zipimport.py',
   'PYMODULE'),
  ('zipfile',
   'C:\\Users\\super\\AppData\\Local\\Programs\\Python\\Python310\\lib\\zipfile.py',
   'PYMODULE'),
  ('py_compile',
   'C:\\Users\\super\\AppData\\Local\\Programs\\Python\\Python310\\lib\\py_compile.py',
   'PYMODULE'),
  ('_distutils_hack',
   'C:\\Users\\super\\AppData\\Local\\Programs\\Python\\Python310\\lib\\site-packages\\_distutils_hack\\__init__.py',
   'PYMODULE'),
  ('multiprocessing.popen_spawn_posix',
   'C:\\Users\\super\\AppData\\Local\\Programs\\Python\\Python310\\lib\\multiprocessing\\popen_spawn_posix.py',
   'PYMODULE'),
  ('multiprocessing.resource_tracker',
   'C:\\Users\\super\\AppData\\Local\\Programs\\Python\\Python310\\lib\\multiprocessing\\resource_tracker.py',
   'PYMODULE'),
  ('multiprocessing.util',
   'C:\\Users\\super\\AppData\\Local\\Programs\\Python\\Python310\\lib\\multiprocessing\\util.py',
   'PYMODULE'),
  ('multiprocessing.forkserver',
   'C:\\Users\\super\\AppData\\Local\\Programs\\Python\\Python310\\lib\\multiprocessing\\forkserver.py',
   'PYMODULE'),
  ('multiprocessing.connection',
   'C:\\Users\\super\\AppData\\Local\\Programs\\Python\\Python310\\lib\\multiprocessing\\connection.py',
   'PYMODULE'),
  ('multiprocessing.resource_sharer',
   'C:\\Users\\super\\AppData\\Local\\Programs\\Python\\Python310\\lib\\multiprocessing\\resource_sharer.py',
   'PYMODULE'),
  ('xmlrpc.client',
   'C:\\Users\\super\\AppData\\Local\\Programs\\Python\\Python310\\lib\\xmlrpc\\client.py',
   'PYMODULE'),
  ('xmlrpc',
   'C:\\Users\\super\\AppData\\Local\\Programs\\Python\\Python310\\lib\\xmlrpc\\__init__.py',
   'PYMODULE'),
  ('hmac',
   'C:\\Users\\super\\AppData\\Local\\Programs\\Python\\Python310\\lib\\hmac.py',
   'PYMODULE'),
  ('multiprocessing.process',
   'C:\\Users\\super\\AppData\\Local\\Programs\\Python\\Python310\\lib\\multiprocessing\\process.py',
   'PYMODULE'),
  ('multiprocessing.context',
   'C:\\Users\\super\\AppData\\Local\\Programs\\Python\\Python310\\lib\\multiprocessing\\context.py',
   'PYMODULE'),
  ('multiprocessing.popen_forkserver',
   'C:\\Users\\super\\AppData\\Local\\Programs\\Python\\Python310\\lib\\multiprocessing\\popen_forkserver.py',
   'PYMODULE'),
  ('multiprocessing.sharedctypes',
   'C:\\Users\\super\\AppData\\Local\\Programs\\Python\\Python310\\lib\\multiprocessing\\sharedctypes.py',
   'PYMODULE'),
  ('multiprocessing.heap',
   'C:\\Users\\super\\AppData\\Local\\Programs\\Python\\Python310\\lib\\multiprocessing\\heap.py',
   'PYMODULE'),
  ('multiprocessing.pool',
   'C:\\Users\\super\\AppData\\Local\\Programs\\Python\\Python310\\lib\\multiprocessing\\pool.py',
   'PYMODULE'),
  ('multiprocessing.dummy',
   'C:\\Users\\super\\AppData\\Local\\Programs\\Python\\Python310\\lib\\multiprocessing\\dummy\\__init__.py',
   'PYMODULE'),
  ('multiprocessing.dummy.connection',
   'C:\\Users\\super\\AppData\\Local\\Programs\\Python\\Python310\\lib\\multiprocessing\\dummy\\connection.py',
   'PYMODULE'),
  ('multiprocessing.queues',
   'C:\\Users\\super\\AppData\\Local\\Programs\\Python\\Python310\\lib\\multiprocessing\\queues.py',
   'PYMODULE'),
  ('multiprocessing.synchronize',
   'C:\\Users\\super\\AppData\\Local\\Programs\\Python\\Python310\\lib\\multiprocessing\\synchronize.py',
   'PYMODULE'),
  ('multiprocessing.managers',
   'C:\\Users\\super\\AppData\\Local\\Programs\\Python\\Python310\\lib\\multiprocessing\\managers.py',
   'PYMODULE'),
  ('multiprocessing.shared_memory',
   'C:\\Users\\super\\AppData\\Local\\Programs\\Python\\Python310\\lib\\multiprocessing\\shared_memory.py',
   'PYMODULE'),
  ('secrets',
   'C:\\Users\\super\\AppData\\Local\\Programs\\Python\\Python310\\lib\\secrets.py',
   'PYMODULE'),
  ('multiprocessing.reduction',
   'C:\\Users\\super\\AppData\\Local\\Programs\\Python\\Python310\\lib\\multiprocessing\\reduction.py',
   'PYMODULE'),
  ('multiprocessing.popen_fork',
   'C:\\Users\\super\\AppData\\Local\\Programs\\Python\\Python310\\lib\\multiprocessing\\popen_fork.py',
   'PYMODULE'),
  ('multiprocessing.popen_spawn_win32',
   'C:\\Users\\super\\AppData\\Local\\Programs\\Python\\Python310\\lib\\multiprocessing\\popen_spawn_win32.py',
   'PYMODULE'),
  ('multiprocessing.spawn',
   'C:\\Users\\super\\AppData\\Local\\Programs\\Python\\Python310\\lib\\multiprocessing\\spawn.py',
   'PYMODULE'),
  ('multiprocessing',
   'C:\\Users\\super\\AppData\\Local\\Programs\\Python\\Python310\\lib\\multiprocessing\\__init__.py',
   'PYMODULE'),
  ('stringprep',
   'C:\\Users\\super\\AppData\\Local\\Programs\\Python\\Python310\\lib\\stringprep.py',
   'PYMODULE'),
  ('getpass',
   'C:\\Users\\super\\AppData\\Local\\Programs\\Python\\Python310\\lib\\getpass.py',
   'PYMODULE'),
  ('nturl2path',
   'C:\\Users\\super\\AppData\\Local\\Programs\\Python\\Python310\\lib\\nturl2path.py',
   'PYMODULE'),
  ('ftplib',
   'C:\\Users\\super\\AppData\\Local\\Programs\\Python\\Python310\\lib\\ftplib.py',
   'PYMODULE'),
  ('netrc',
   'C:\\Users\\super\\AppData\\Local\\Programs\\Python\\Python310\\lib\\netrc.py',
   'PYMODULE'),
  ('http.cookiejar',
   'C:\\Users\\super\\AppData\\Local\\Programs\\Python\\Python310\\lib\\http\\cookiejar.py',
   'PYMODULE'),
  ('_py_abc',
   'C:\\Users\\super\\AppData\\Local\\Programs\\Python\\Python310\\lib\\_py_abc.py',
   'PYMODULE'),
  ('tracemalloc',
   'C:\\Users\\super\\AppData\\Local\\Programs\\Python\\Python310\\lib\\tracemalloc.py',
   'PYMODULE'),
  ('PySimpleGUI',
   'C:\\Users\\super\\AppData\\Local\\Programs\\Python\\Python310\\lib\\site-packages\\PySimpleGUI\\__init__.py',
   'PYMODULE'),
  ('PySimpleGUI.PySimpleGUI',
   'C:\\Users\\super\\AppData\\Local\\Programs\\Python\\Python310\\lib\\site-packages\\PySimpleGUI\\PySimpleGUI.py',
   'PYMODULE'),
  ('PIL.Image',
   'C:\\Users\\super\\AppData\\Local\\Programs\\Python\\Python310\\lib\\site-packages\\PIL\\Image.py',
   'PYMODULE'),
  ('PIL.XpmImagePlugin',
   'C:\\Users\\super\\AppData\\Local\\Programs\\Python\\Python310\\lib\\site-packages\\PIL\\XpmImagePlugin.py',
   'PYMODULE'),
  ('PIL.ImageFile',
   'C:\\Users\\super\\AppData\\Local\\Programs\\Python\\Python310\\lib\\site-packages\\PIL\\ImageFile.py',
   'PYMODULE'),
  ('PIL.XbmImagePlugin',
   'C:\\Users\\super\\AppData\\Local\\Programs\\Python\\Python310\\lib\\site-packages\\PIL\\XbmImagePlugin.py',
   'PYMODULE'),
  ('PIL.XVThumbImagePlugin',
   'C:\\Users\\super\\AppData\\Local\\Programs\\Python\\Python310\\lib\\site-packages\\PIL\\XVThumbImagePlugin.py',
   'PYMODULE'),
  ('PIL.WmfImagePlugin',
   'C:\\Users\\super\\AppData\\Local\\Programs\\Python\\Python310\\lib\\site-packages\\PIL\\WmfImagePlugin.py',
   'PYMODULE'),
  ('PIL.WebPImagePlugin',
   'C:\\Users\\super\\AppData\\Local\\Programs\\Python\\Python310\\lib\\site-packages\\PIL\\WebPImagePlugin.py',
   'PYMODULE'),
  ('PIL.TgaImagePlugin',
   'C:\\Users\\super\\AppData\\Local\\Programs\\Python\\Python310\\lib\\site-packages\\PIL\\TgaImagePlugin.py',
   'PYMODULE'),
  ('PIL.SunImagePlugin',
   'C:\\Users\\super\\AppData\\Local\\Programs\\Python\\Python310\\lib\\site-packages\\PIL\\SunImagePlugin.py',
   'PYMODULE'),
  ('PIL.SpiderImagePlugin',
   'C:\\Users\\super\\AppData\\Local\\Programs\\Python\\Python310\\lib\\site-packages\\PIL\\SpiderImagePlugin.py',
   'PYMODULE'),
  ('PIL.ImageTk',
   'C:\\Users\\super\\AppData\\Local\\Programs\\Python\\Python310\\lib\\site-packages\\PIL\\ImageTk.py',
   'PYMODULE'),
  ('PIL.SgiImagePlugin',
   'C:\\Users\\super\\AppData\\Local\\Programs\\Python\\Python310\\lib\\site-packages\\PIL\\SgiImagePlugin.py',
   'PYMODULE'),
  ('PIL.PsdImagePlugin',
   'C:\\Users\\super\\AppData\\Local\\Programs\\Python\\Python310\\lib\\site-packages\\PIL\\PsdImagePlugin.py',
   'PYMODULE'),
  ('PIL.PixarImagePlugin',
   'C:\\Users\\super\\AppData\\Local\\Programs\\Python\\Python310\\lib\\site-packages\\PIL\\PixarImagePlugin.py',
   'PYMODULE'),
  ('PIL.PdfImagePlugin',
   'C:\\Users\\super\\AppData\\Local\\Programs\\Python\\Python310\\lib\\site-packages\\PIL\\PdfImagePlugin.py',
   'PYMODULE'),
  ('PIL.PdfParser',
   'C:\\Users\\super\\AppData\\Local\\Programs\\Python\\Python310\\lib\\site-packages\\PIL\\PdfParser.py',
   'PYMODULE'),
  ('PIL.ImageSequence',
   'C:\\Users\\super\\AppData\\Local\\Programs\\Python\\Python310\\lib\\site-packages\\PIL\\ImageSequence.py',
   'PYMODULE'),
  ('PIL.PcxImagePlugin',
   'C:\\Users\\super\\AppData\\Local\\Programs\\Python\\Python310\\lib\\site-packages\\PIL\\PcxImagePlugin.py',
   'PYMODULE'),
  ('PIL.PcdImagePlugin',
   'C:\\Users\\super\\AppData\\Local\\Programs\\Python\\Python310\\lib\\site-packages\\PIL\\PcdImagePlugin.py',
   'PYMODULE'),
  ('PIL.PalmImagePlugin',
   'C:\\Users\\super\\AppData\\Local\\Programs\\Python\\Python310\\lib\\site-packages\\PIL\\PalmImagePlugin.py',
   'PYMODULE'),
  ('PIL.MspImagePlugin',
   'C:\\Users\\super\\AppData\\Local\\Programs\\Python\\Python310\\lib\\site-packages\\PIL\\MspImagePlugin.py',
   'PYMODULE'),
  ('PIL.MpoImagePlugin',
   'C:\\Users\\super\\AppData\\Local\\Programs\\Python\\Python310\\lib\\site-packages\\PIL\\MpoImagePlugin.py',
   'PYMODULE'),
  ('PIL.MpegImagePlugin',
   'C:\\Users\\super\\AppData\\Local\\Programs\\Python\\Python310\\lib\\site-packages\\PIL\\MpegImagePlugin.py',
   'PYMODULE'),
  ('PIL.MicImagePlugin',
   'C:\\Users\\super\\AppData\\Local\\Programs\\Python\\Python310\\lib\\site-packages\\PIL\\MicImagePlugin.py',
   'PYMODULE'),
  ('PIL.McIdasImagePlugin',
   'C:\\Users\\super\\AppData\\Local\\Programs\\Python\\Python310\\lib\\site-packages\\PIL\\McIdasImagePlugin.py',
   'PYMODULE'),
  ('PIL.Jpeg2KImagePlugin',
   'C:\\Users\\super\\AppData\\Local\\Programs\\Python\\Python310\\lib\\site-packages\\PIL\\Jpeg2KImagePlugin.py',
   'PYMODULE'),
  ('PIL.IptcImagePlugin',
   'C:\\Users\\super\\AppData\\Local\\Programs\\Python\\Python310\\lib\\site-packages\\PIL\\IptcImagePlugin.py',
   'PYMODULE'),
  ('PIL.ImtImagePlugin',
   'C:\\Users\\super\\AppData\\Local\\Programs\\Python\\Python310\\lib\\site-packages\\PIL\\ImtImagePlugin.py',
   'PYMODULE'),
  ('PIL.ImImagePlugin',
   'C:\\Users\\super\\AppData\\Local\\Programs\\Python\\Python310\\lib\\site-packages\\PIL\\ImImagePlugin.py',
   'PYMODULE'),
  ('PIL.IcoImagePlugin',
   'C:\\Users\\super\\AppData\\Local\\Programs\\Python\\Python310\\lib\\site-packages\\PIL\\IcoImagePlugin.py',
   'PYMODULE'),
  ('PIL.IcnsImagePlugin',
   'C:\\Users\\super\\AppData\\Local\\Programs\\Python\\Python310\\lib\\site-packages\\PIL\\IcnsImagePlugin.py',
   'PYMODULE'),
  ('PIL.features',
   'C:\\Users\\super\\AppData\\Local\\Programs\\Python\\Python310\\lib\\site-packages\\PIL\\features.py',
   'PYMODULE'),
  ('PIL.Hdf5StubImagePlugin',
   'C:\\Users\\super\\AppData\\Local\\Programs\\Python\\Python310\\lib\\site-packages\\PIL\\Hdf5StubImagePlugin.py',
   'PYMODULE'),
  ('PIL.GribStubImagePlugin',
   'C:\\Users\\super\\AppData\\Local\\Programs\\Python\\Python310\\lib\\site-packages\\PIL\\GribStubImagePlugin.py',
   'PYMODULE'),
  ('PIL.GbrImagePlugin',
   'C:\\Users\\super\\AppData\\Local\\Programs\\Python\\Python310\\lib\\site-packages\\PIL\\GbrImagePlugin.py',
   'PYMODULE'),
  ('PIL.FtexImagePlugin',
   'C:\\Users\\super\\AppData\\Local\\Programs\\Python\\Python310\\lib\\site-packages\\PIL\\FtexImagePlugin.py',
   'PYMODULE'),
  ('PIL.FpxImagePlugin',
   'C:\\Users\\super\\AppData\\Local\\Programs\\Python\\Python310\\lib\\site-packages\\PIL\\FpxImagePlugin.py',
   'PYMODULE'),
  ('PIL.FliImagePlugin',
   'C:\\Users\\super\\AppData\\Local\\Programs\\Python\\Python310\\lib\\site-packages\\PIL\\FliImagePlugin.py',
   'PYMODULE'),
  ('PIL.FitsStubImagePlugin',
   'C:\\Users\\super\\AppData\\Local\\Programs\\Python\\Python310\\lib\\site-packages\\PIL\\FitsStubImagePlugin.py',
   'PYMODULE'),
  ('PIL.FitsImagePlugin',
   'C:\\Users\\super\\AppData\\Local\\Programs\\Python\\Python310\\lib\\site-packages\\PIL\\FitsImagePlugin.py',
   'PYMODULE'),
  ('PIL.EpsImagePlugin',
   'C:\\Users\\super\\AppData\\Local\\Programs\\Python\\Python310\\lib\\site-packages\\PIL\\EpsImagePlugin.py',
   'PYMODULE'),
  ('PIL.DdsImagePlugin',
   'C:\\Users\\super\\AppData\\Local\\Programs\\Python\\Python310\\lib\\site-packages\\PIL\\DdsImagePlugin.py',
   'PYMODULE'),
  ('PIL.DcxImagePlugin',
   'C:\\Users\\super\\AppData\\Local\\Programs\\Python\\Python310\\lib\\site-packages\\PIL\\DcxImagePlugin.py',
   'PYMODULE'),
  ('PIL.CurImagePlugin',
   'C:\\Users\\super\\AppData\\Local\\Programs\\Python\\Python310\\lib\\site-packages\\PIL\\CurImagePlugin.py',
   'PYMODULE'),
  ('PIL.BufrStubImagePlugin',
   'C:\\Users\\super\\AppData\\Local\\Programs\\Python\\Python310\\lib\\site-packages\\PIL\\BufrStubImagePlugin.py',
   'PYMODULE'),
  ('PIL.BlpImagePlugin',
   'C:\\Users\\super\\AppData\\Local\\Programs\\Python\\Python310\\lib\\site-packages\\PIL\\BlpImagePlugin.py',
   'PYMODULE'),
  ('PIL.TiffImagePlugin',
   'C:\\Users\\super\\AppData\\Local\\Programs\\Python\\Python310\\lib\\site-packages\\PIL\\TiffImagePlugin.py',
   'PYMODULE'),
  ('PIL.ImageOps',
   'C:\\Users\\super\\AppData\\Local\\Programs\\Python\\Python310\\lib\\site-packages\\PIL\\ImageOps.py',
   'PYMODULE'),
  ('PIL.ImageShow',
   'C:\\Users\\super\\AppData\\Local\\Programs\\Python\\Python310\\lib\\site-packages\\PIL\\ImageShow.py',
   'PYMODULE'),
  ('PIL.ImageQt',
   'C:\\Users\\super\\AppData\\Local\\Programs\\Python\\Python310\\lib\\site-packages\\PIL\\ImageQt.py',
   'PYMODULE'),
  ('PIL.ImageColor',
   'C:\\Users\\super\\AppData\\Local\\Programs\\Python\\Python310\\lib\\site-packages\\PIL\\ImageColor.py',
   'PYMODULE'),
  ('colorsys',
   'C:\\Users\\super\\AppData\\Local\\Programs\\Python\\Python310\\lib\\colorsys.py',
   'PYMODULE'),
  ('PIL.ImageFilter',
   'C:\\Users\\super\\AppData\\Local\\Programs\\Python\\Python310\\lib\\site-packages\\PIL\\ImageFilter.py',
   'PYMODULE'),
  ('PIL.PyAccess',
   'C:\\Users\\super\\AppData\\Local\\Programs\\Python\\Python310\\lib\\site-packages\\PIL\\PyAccess.py',
   'PYMODULE'),
  ('PIL.ImagePalette',
   'C:\\Users\\super\\AppData\\Local\\Programs\\Python\\Python310\\lib\\site-packages\\PIL\\ImagePalette.py',
   'PYMODULE'),
  ('PIL.PaletteFile',
   'C:\\Users\\super\\AppData\\Local\\Programs\\Python\\Python310\\lib\\site-packages\\PIL\\PaletteFile.py',
   'PYMODULE'),
  ('PIL.GimpPaletteFile',
   'C:\\Users\\super\\AppData\\Local\\Programs\\Python\\Python310\\lib\\site-packages\\PIL\\GimpPaletteFile.py',
   'PYMODULE'),
  ('PIL.GimpGradientFile',
   'C:\\Users\\super\\AppData\\Local\\Programs\\Python\\Python310\\lib\\site-packages\\PIL\\GimpGradientFile.py',
   'PYMODULE'),
  ('PIL.PngImagePlugin',
   'C:\\Users\\super\\AppData\\Local\\Programs\\Python\\Python310\\lib\\site-packages\\PIL\\PngImagePlugin.py',
   'PYMODULE'),
  ('PIL.ImageChops',
   'C:\\Users\\super\\AppData\\Local\\Programs\\Python\\Python310\\lib\\site-packages\\PIL\\ImageChops.py',
   'PYMODULE'),
  ('PIL.PpmImagePlugin',
   'C:\\Users\\super\\AppData\\Local\\Programs\\Python\\Python310\\lib\\site-packages\\PIL\\PpmImagePlugin.py',
   'PYMODULE'),
  ('PIL.JpegImagePlugin',
   'C:\\Users\\super\\AppData\\Local\\Programs\\Python\\Python310\\lib\\site-packages\\PIL\\JpegImagePlugin.py',
   'PYMODULE'),
  ('PIL.JpegPresets',
   'C:\\Users\\super\\AppData\\Local\\Programs\\Python\\Python310\\lib\\site-packages\\PIL\\JpegPresets.py',
   'PYMODULE'),
  ('PIL.GifImagePlugin',
   'C:\\Users\\super\\AppData\\Local\\Programs\\Python\\Python310\\lib\\site-packages\\PIL\\GifImagePlugin.py',
   'PYMODULE'),
  ('PIL.BmpImagePlugin',
   'C:\\Users\\super\\AppData\\Local\\Programs\\Python\\Python310\\lib\\site-packages\\PIL\\BmpImagePlugin.py',
   'PYMODULE'),
  ('cffi',
   'C:\\Users\\super\\AppData\\Local\\Programs\\Python\\Python310\\lib\\site-packages\\cffi\\__init__.py',
   'PYMODULE'),
  ('cffi.error',
   'C:\\Users\\super\\AppData\\Local\\Programs\\Python\\Python310\\lib\\site-packages\\cffi\\error.py',
   'PYMODULE'),
  ('cffi.api',
   'C:\\Users\\super\\AppData\\Local\\Programs\\Python\\Python310\\lib\\site-packages\\cffi\\api.py',
   'PYMODULE'),
  ('ctypes.util',
   'C:\\Users\\super\\AppData\\Local\\Programs\\Python\\Python310\\lib\\ctypes\\util.py',
   'PYMODULE'),
  ('ctypes._aix',
   'C:\\Users\\super\\AppData\\Local\\Programs\\Python\\Python310\\lib\\ctypes\\_aix.py',
   'PYMODULE'),
  ('ctypes.macholib.dyld',
   'C:\\Users\\super\\AppData\\Local\\Programs\\Python\\Python310\\lib\\ctypes\\macholib\\dyld.py',
   'PYMODULE'),
  ('ctypes.macholib',
   'C:\\Users\\super\\AppData\\Local\\Programs\\Python\\Python310\\lib\\ctypes\\macholib\\__init__.py',
   'PYMODULE'),
  ('ctypes.macholib.dylib',
   'C:\\Users\\super\\AppData\\Local\\Programs\\Python\\Python310\\lib\\ctypes\\macholib\\dylib.py',
   'PYMODULE'),
  ('ctypes.macholib.framework',
   'C:\\Users\\super\\AppData\\Local\\Programs\\Python\\Python310\\lib\\ctypes\\macholib\\framework.py',
   'PYMODULE'),
  ('cffi.recompiler',
   'C:\\Users\\super\\AppData\\Local\\Programs\\Python\\Python310\\lib\\site-packages\\cffi\\recompiler.py',
   'PYMODULE'),
  ('distutils.command.build_ext',
   'C:\\Users\\super\\AppData\\Local\\Programs\\Python\\Python310\\lib\\distutils\\command\\build_ext.py',
   'PYMODULE'),
  ('distutils.command',
   'C:\\Users\\super\\AppData\\Local\\Programs\\Python\\Python310\\lib\\distutils\\command\\__init__.py',
   'PYMODULE'),
  ('distutils._msvccompiler',
   'C:\\Users\\super\\AppData\\Local\\Programs\\Python\\Python310\\lib\\distutils\\_msvccompiler.py',
   'PYMODULE'),
  ('concurrent.futures',
   'C:\\Users\\super\\AppData\\Local\\Programs\\Python\\Python310\\lib\\concurrent\\futures\\__init__.py',
   'PYMODULE'),
  ('concurrent.futures.thread',
   'C:\\Users\\super\\AppData\\Local\\Programs\\Python\\Python310\\lib\\concurrent\\futures\\thread.py',
   'PYMODULE'),
  ('concurrent.futures.process',
   'C:\\Users\\super\\AppData\\Local\\Programs\\Python\\Python310\\lib\\concurrent\\futures\\process.py',
   'PYMODULE'),
  ('concurrent.futures._base',
   'C:\\Users\\super\\AppData\\Local\\Programs\\Python\\Python310\\lib\\concurrent\\futures\\_base.py',
   'PYMODULE'),
  ('concurrent',
   'C:\\Users\\super\\AppData\\Local\\Programs\\Python\\Python310\\lib\\concurrent\\__init__.py',
   'PYMODULE'),
  ('site',
   'C:\\Users\\super\\AppData\\Local\\Programs\\Python\\Python310\\lib\\site-packages\\PyInstaller\\fake-modules\\site.py',
   'PYMODULE'),
  ('distutils.log',
   'C:\\Users\\super\\AppData\\Local\\Programs\\Python\\Python310\\lib\\distutils\\log.py',
   'PYMODULE'),
  ('distutils.util',
   'C:\\Users\\super\\AppData\\Local\\Programs\\Python\\Python310\\lib\\distutils\\util.py',
   'PYMODULE'),
  ('distutils.filelist',
   'C:\\Users\\super\\AppData\\Local\\Programs\\Python\\Python310\\lib\\distutils\\filelist.py',
   'PYMODULE'),
  ('distutils.debug',
   'C:\\Users\\super\\AppData\\Local\\Programs\\Python\\Python310\\lib\\distutils\\debug.py',
   'PYMODULE'),
  ('distutils.file_util',
   'C:\\Users\\super\\AppData\\Local\\Programs\\Python\\Python310\\lib\\distutils\\file_util.py',
   'PYMODULE'),
  ('_osx_support',
   'C:\\Users\\super\\AppData\\Local\\Programs\\Python\\Python310\\lib\\_osx_support.py',
   'PYMODULE'),
  ('distutils.spawn',
   'C:\\Users\\super\\AppData\\Local\\Programs\\Python\\Python310\\lib\\distutils\\spawn.py',
   'PYMODULE'),
  ('distutils.extension',
   'C:\\Users\\super\\AppData\\Local\\Programs\\Python\\Python310\\lib\\distutils\\extension.py',
   'PYMODULE'),
  ('distutils.text_file',
   'C:\\Users\\super\\AppData\\Local\\Programs\\Python\\Python310\\lib\\distutils\\text_file.py',
   'PYMODULE'),
  ('distutils.dep_util',
   'C:\\Users\\super\\AppData\\Local\\Programs\\Python\\Python310\\lib\\distutils\\dep_util.py',
   'PYMODULE'),
  ('distutils.errors',
   'C:\\Users\\super\\AppData\\Local\\Programs\\Python\\Python310\\lib\\distutils\\errors.py',
   'PYMODULE'),
  ('distutils.core',
   'C:\\Users\\super\\AppData\\Local\\Programs\\Python\\Python310\\lib\\distutils\\core.py',
   'PYMODULE'),
  ('distutils.config',
   'C:\\Users\\super\\AppData\\Local\\Programs\\Python\\Python310\\lib\\distutils\\config.py',
   'PYMODULE'),
  ('cgi',
   'C:\\Users\\super\\AppData\\Local\\Programs\\Python\\Python310\\lib\\cgi.py',
   'PYMODULE'),
  ('distutils.cmd',
   'C:\\Users\\super\\AppData\\Local\\Programs\\Python\\Python310\\lib\\distutils\\cmd.py',
   'PYMODULE'),
  ('distutils.fancy_getopt',
   'C:\\Users\\super\\AppData\\Local\\Programs\\Python\\Python310\\lib\\distutils\\fancy_getopt.py',
   'PYMODULE'),
  ('distutils.archive_util',
   'C:\\Users\\super\\AppData\\Local\\Programs\\Python\\Python310\\lib\\distutils\\archive_util.py',
   'PYMODULE'),
  ('distutils.dist',
   'C:\\Users\\super\\AppData\\Local\\Programs\\Python\\Python310\\lib\\distutils\\dist.py',
   'PYMODULE'),
  ('distutils.versionpredicate',
   'C:\\Users\\super\\AppData\\Local\\Programs\\Python\\Python310\\lib\\distutils\\versionpredicate.py',
   'PYMODULE'),
  ('distutils.version',
   'C:\\Users\\super\\AppData\\Local\\Programs\\Python\\Python310\\lib\\distutils\\version.py',
   'PYMODULE'),
  ('distutils.ccompiler',
   'C:\\Users\\super\\AppData\\Local\\Programs\\Python\\Python310\\lib\\distutils\\ccompiler.py',
   'PYMODULE'),
  ('distutils.msvc9compiler',
   'C:\\Users\\super\\AppData\\Local\\Programs\\Python\\Python310\\lib\\distutils\\msvc9compiler.py',
   'PYMODULE'),
  ('cffi.cffi_opcode',
   'C:\\Users\\super\\AppData\\Local\\Programs\\Python\\Python310\\lib\\site-packages\\cffi\\cffi_opcode.py',
   'PYMODULE'),
  ('distutils.dir_util',
   'C:\\Users\\super\\AppData\\Local\\Programs\\Python\\Python310\\lib\\distutils\\dir_util.py',
   'PYMODULE'),
  ('distutils.sysconfig',
   'C:\\Users\\super\\AppData\\Local\\Programs\\Python\\Python310\\lib\\distutils\\sysconfig.py',
   'PYMODULE'),
  ('distutils',
   'C:\\Users\\super\\AppData\\Local\\Programs\\Python\\Python310\\lib\\distutils\\__init__.py',
   'PYMODULE'),
  ('setuptools._distutils',
   'C:\\Users\\super\\AppData\\Local\\Programs\\Python\\Python310\\lib\\site-packages\\setuptools\\_distutils\\__init__.py',
   'PYMODULE'),
  ('setuptools',
   'C:\\Users\\super\\AppData\\Local\\Programs\\Python\\Python310\\lib\\site-packages\\setuptools\\__init__.py',
   'PYMODULE'),
  ('setuptools._distutils.versionpredicate',
   'C:\\Users\\super\\AppData\\Local\\Programs\\Python\\Python310\\lib\\site-packages\\setuptools\\_distutils\\versionpredicate.py',
   'PYMODULE'),
  ('setuptools._distutils.version',
   'C:\\Users\\super\\AppData\\Local\\Programs\\Python\\Python310\\lib\\site-packages\\setuptools\\_distutils\\version.py',
   'PYMODULE'),
  ('setuptools._distutils.util',
   'C:\\Users\\super\\AppData\\Local\\Programs\\Python\\Python310\\lib\\site-packages\\setuptools\\_distutils\\util.py',
   'PYMODULE'),
  ('setuptools._distutils.unixccompiler',
   'C:\\Users\\super\\AppData\\Local\\Programs\\Python\\Python310\\lib\\site-packages\\setuptools\\_distutils\\unixccompiler.py',
   'PYMODULE'),
  ('setuptools._distutils.text_file',
   'C:\\Users\\super\\AppData\\Local\\Programs\\Python\\Python310\\lib\\site-packages\\setuptools\\_distutils\\text_file.py',
   'PYMODULE'),
  ('setuptools._distutils.sysconfig',
   'C:\\Users\\super\\AppData\\Local\\Programs\\Python\\Python310\\lib\\site-packages\\setuptools\\_distutils\\sysconfig.py',
   'PYMODULE'),
  ('setuptools._distutils.spawn',
   'C:\\Users\\super\\AppData\\Local\\Programs\\Python\\Python310\\lib\\site-packages\\setuptools\\_distutils\\spawn.py',
   'PYMODULE'),
  ('setuptools._distutils.py39compat',
   'C:\\Users\\super\\AppData\\Local\\Programs\\Python\\Python310\\lib\\site-packages\\setuptools\\_distutils\\py39compat.py',
   'PYMODULE'),
  ('setuptools._distutils.py38compat',
   'C:\\Users\\super\\AppData\\Local\\Programs\\Python\\Python310\\lib\\site-packages\\setuptools\\_distutils\\py38compat.py',
   'PYMODULE'),
  ('setuptools._distutils.msvccompiler',
   'C:\\Users\\super\\AppData\\Local\\Programs\\Python\\Python310\\lib\\site-packages\\setuptools\\_distutils\\msvccompiler.py',
   'PYMODULE'),
  ('setuptools._distutils.msvc9compiler',
   'C:\\Users\\super\\AppData\\Local\\Programs\\Python\\Python310\\lib\\site-packages\\setuptools\\_distutils\\msvc9compiler.py',
   'PYMODULE'),
  ('setuptools._distutils.log',
   'C:\\Users\\super\\AppData\\Local\\Programs\\Python\\Python310\\lib\\site-packages\\setuptools\\_distutils\\log.py',
   'PYMODULE'),
  ('setuptools._distutils.filelist',
   'C:\\Users\\super\\AppData\\Local\\Programs\\Python\\Python310\\lib\\site-packages\\setuptools\\_distutils\\filelist.py',
   'PYMODULE'),
  ('setuptools._distutils.file_util',
   'C:\\Users\\super\\AppData\\Local\\Programs\\Python\\Python310\\lib\\site-packages\\setuptools\\_distutils\\file_util.py',
   'PYMODULE'),
  ('setuptools._distutils.fancy_getopt',
   'C:\\Users\\super\\AppData\\Local\\Programs\\Python\\Python310\\lib\\site-packages\\setuptools\\_distutils\\fancy_getopt.py',
   'PYMODULE'),
  ('setuptools._distutils.extension',
   'C:\\Users\\super\\AppData\\Local\\Programs\\Python\\Python310\\lib\\site-packages\\setuptools\\_distutils\\extension.py',
   'PYMODULE'),
  ('setuptools._distutils.errors',
   'C:\\Users\\super\\AppData\\Local\\Programs\\Python\\Python310\\lib\\site-packages\\setuptools\\_distutils\\errors.py',
   'PYMODULE'),
  ('setuptools._distutils.dist',
   'C:\\Users\\super\\AppData\\Local\\Programs\\Python\\Python310\\lib\\site-packages\\setuptools\\_distutils\\dist.py',
   'PYMODULE'),
  ('setuptools._distutils.dir_util',
   'C:\\Users\\super\\AppData\\Local\\Programs\\Python\\Python310\\lib\\site-packages\\setuptools\\_distutils\\dir_util.py',
   'PYMODULE'),
  ('setuptools._distutils.dep_util',
   'C:\\Users\\super\\AppData\\Local\\Programs\\Python\\Python310\\lib\\site-packages\\setuptools\\_distutils\\dep_util.py',
   'PYMODULE'),
  ('setuptools._distutils.debug',
   'C:\\Users\\super\\AppData\\Local\\Programs\\Python\\Python310\\lib\\site-packages\\setuptools\\_distutils\\debug.py',
   'PYMODULE'),
  ('setuptools._distutils.cygwinccompiler',
   'C:\\Users\\super\\AppData\\Local\\Programs\\Python\\Python310\\lib\\site-packages\\setuptools\\_distutils\\cygwinccompiler.py',
   'PYMODULE'),
  ('distutils.unixccompiler',
   'C:\\Users\\super\\AppData\\Local\\Programs\\Python\\Python310\\lib\\distutils\\unixccompiler.py',
   'PYMODULE'),
  ('setuptools._distutils.core',
   'C:\\Users\\super\\AppData\\Local\\Programs\\Python\\Python310\\lib\\site-packages\\setuptools\\_distutils\\core.py',
   'PYMODULE'),
  ('setuptools._distutils.config',
   'C:\\Users\\super\\AppData\\Local\\Programs\\Python\\Python310\\lib\\site-packages\\setuptools\\_distutils\\config.py',
   'PYMODULE'),
  ('setuptools._distutils.command.upload',
   'C:\\Users\\super\\AppData\\Local\\Programs\\Python\\Python310\\lib\\site-packages\\setuptools\\_distutils\\command\\upload.py',
   'PYMODULE'),
  ('setuptools._distutils.command.sdist',
   'C:\\Users\\super\\AppData\\Local\\Programs\\Python\\Python310\\lib\\site-packages\\setuptools\\_distutils\\command\\sdist.py',
   'PYMODULE'),
  ('setuptools._distutils.command.register',
   'C:\\Users\\super\\AppData\\Local\\Programs\\Python\\Python310\\lib\\site-packages\\setuptools\\_distutils\\command\\register.py',
   'PYMODULE'),
  ('setuptools._distutils.command.py37compat',
   'C:\\Users\\super\\AppData\\Local\\Programs\\Python\\Python310\\lib\\site-packages\\setuptools\\_distutils\\command\\py37compat.py',
   'PYMODULE'),
  ('setuptools._distutils.command.install_scripts',
   'C:\\Users\\super\\AppData\\Local\\Programs\\Python\\Python310\\lib\\site-packages\\setuptools\\_distutils\\command\\install_scripts.py',
   'PYMODULE'),
  ('setuptools._distutils.command.install_lib',
   'C:\\Users\\super\\AppData\\Local\\Programs\\Python\\Python310\\lib\\site-packages\\setuptools\\_distutils\\command\\install_lib.py',
   'PYMODULE'),
  ('setuptools._distutils.command.install_headers',
   'C:\\Users\\super\\AppData\\Local\\Programs\\Python\\Python310\\lib\\site-packages\\setuptools\\_distutils\\command\\install_headers.py',
   'PYMODULE'),
  ('setuptools._distutils.command.install_egg_info',
   'C:\\Users\\super\\AppData\\Local\\Programs\\Python\\Python310\\lib\\site-packages\\setuptools\\_distutils\\command\\install_egg_info.py',
   'PYMODULE'),
  ('setuptools._distutils.command.install_data',
   'C:\\Users\\super\\AppData\\Local\\Programs\\Python\\Python310\\lib\\site-packages\\setuptools\\_distutils\\command\\install_data.py',
   'PYMODULE'),
  ('setuptools._distutils.command.install',
   'C:\\Users\\super\\AppData\\Local\\Programs\\Python\\Python310\\lib\\site-packages\\setuptools\\_distutils\\command\\install.py',
   'PYMODULE'),
  ('setuptools._distutils.command.config',
   'C:\\Users\\super\\AppData\\Local\\Programs\\Python\\Python310\\lib\\site-packages\\setuptools\\_distutils\\command\\config.py',
   'PYMODULE'),
  ('setuptools._distutils.command.clean',
   'C:\\Users\\super\\AppData\\Local\\Programs\\Python\\Python310\\lib\\site-packages\\setuptools\\_distutils\\command\\clean.py',
   'PYMODULE'),
  ('setuptools._distutils.command.check',
   'C:\\Users\\super\\AppData\\Local\\Programs\\Python\\Python310\\lib\\site-packages\\setuptools\\_distutils\\command\\check.py',
   'PYMODULE'),
  ('setuptools._distutils.command.build_scripts',
   'C:\\Users\\super\\AppData\\Local\\Programs\\Python\\Python310\\lib\\site-packages\\setuptools\\_distutils\\command\\build_scripts.py',
   'PYMODULE'),
  ('setuptools._distutils.command.build_py',
   'C:\\Users\\super\\AppData\\Local\\Programs\\Python\\Python310\\lib\\site-packages\\setuptools\\_distutils\\command\\build_py.py',
   'PYMODULE'),
  ('setuptools._distutils.command.build_ext',
   'C:\\Users\\super\\AppData\\Local\\Programs\\Python\\Python310\\lib\\site-packages\\setuptools\\_distutils\\command\\build_ext.py',
   'PYMODULE'),
  ('setuptools._distutils.command.build_clib',
   'C:\\Users\\super\\AppData\\Local\\Programs\\Python\\Python310\\lib\\site-packages\\setuptools\\_distutils\\command\\build_clib.py',
   'PYMODULE'),
  ('setuptools._distutils.command.build',
   'C:\\Users\\super\\AppData\\Local\\Programs\\Python\\Python310\\lib\\site-packages\\setuptools\\_distutils\\command\\build.py',
   'PYMODULE'),
  ('setuptools._distutils.command.bdist_wininst',
   'C:\\Users\\super\\AppData\\Local\\Programs\\Python\\Python310\\lib\\site-packages\\setuptools\\_distutils\\command\\bdist_wininst.py',
   'PYMODULE'),
  ('setuptools._distutils.command.bdist_rpm',
   'C:\\Users\\super\\AppData\\Local\\Programs\\Python\\Python310\\lib\\site-packages\\setuptools\\_distutils\\command\\bdist_rpm.py',
   'PYMODULE'),
  ('setuptools._distutils.command.bdist_msi',
   'C:\\Users\\super\\AppData\\Local\\Programs\\Python\\Python310\\lib\\site-packages\\setuptools\\_distutils\\command\\bdist_msi.py',
   'PYMODULE'),
  ('msilib.text',
   'C:\\Users\\super\\AppData\\Local\\Programs\\Python\\Python310\\lib\\msilib\\text.py',
   'PYMODULE'),
  ('msilib.sequence',
   'C:\\Users\\super\\AppData\\Local\\Programs\\Python\\Python310\\lib\\msilib\\sequence.py',
   'PYMODULE'),
  ('msilib.schema',
   'C:\\Users\\super\\AppData\\Local\\Programs\\Python\\Python310\\lib\\msilib\\schema.py',
   'PYMODULE'),
  ('msilib',
   'C:\\Users\\super\\AppData\\Local\\Programs\\Python\\Python310\\lib\\msilib\\__init__.py',
   'PYMODULE'),
  ('setuptools._distutils.command.bdist_dumb',
   'C:\\Users\\super\\AppData\\Local\\Programs\\Python\\Python310\\lib\\site-packages\\setuptools\\_distutils\\command\\bdist_dumb.py',
   'PYMODULE'),
  ('setuptools._distutils.command.bdist',
   'C:\\Users\\super\\AppData\\Local\\Programs\\Python\\Python310\\lib\\site-packages\\setuptools\\_distutils\\command\\bdist.py',
   'PYMODULE'),
  ('setuptools._distutils.command._framework_compat',
   'C:\\Users\\super\\AppData\\Local\\Programs\\Python\\Python310\\lib\\site-packages\\setuptools\\_distutils\\command\\_framework_compat.py',
   'PYMODULE'),
  ('setuptools._distutils.command',
   'C:\\Users\\super\\AppData\\Local\\Programs\\Python\\Python310\\lib\\site-packages\\setuptools\\_distutils\\command\\__init__.py',
   'PYMODULE'),
  ('setuptools._distutils.cmd',
   'C:\\Users\\super\\AppData\\Local\\Programs\\Python\\Python310\\lib\\site-packages\\setuptools\\_distutils\\cmd.py',
   'PYMODULE'),
  ('setuptools._distutils.ccompiler',
   'C:\\Users\\super\\AppData\\Local\\Programs\\Python\\Python310\\lib\\site-packages\\setuptools\\_distutils\\ccompiler.py',
   'PYMODULE'),
  ('setuptools._distutils.bcppcompiler',
   'C:\\Users\\super\\AppData\\Local\\Programs\\Python\\Python310\\lib\\site-packages\\setuptools\\_distutils\\bcppcompiler.py',
   'PYMODULE'),
  ('setuptools._distutils.archive_util',
   'C:\\Users\\super\\AppData\\Local\\Programs\\Python\\Python310\\lib\\site-packages\\setuptools\\_distutils\\archive_util.py',
   'PYMODULE'),
  ('setuptools._distutils._msvccompiler',
   'C:\\Users\\super\\AppData\\Local\\Programs\\Python\\Python310\\lib\\site-packages\\setuptools\\_distutils\\_msvccompiler.py',
   'PYMODULE'),
  ('unittest.mock',
   'C:\\Users\\super\\AppData\\Local\\Programs\\Python\\Python310\\lib\\unittest\\mock.py',
   'PYMODULE'),
  ('unittest',
   'C:\\Users\\super\\AppData\\Local\\Programs\\Python\\Python310\\lib\\unittest\\__init__.py',
   'PYMODULE'),
  ('unittest.async_case',
   'C:\\Users\\super\\AppData\\Local\\Programs\\Python\\Python310\\lib\\unittest\\async_case.py',
   'PYMODULE'),
  ('unittest.signals',
   'C:\\Users\\super\\AppData\\Local\\Programs\\Python\\Python310\\lib\\unittest\\signals.py',
   'PYMODULE'),
  ('unittest.main',
   'C:\\Users\\super\\AppData\\Local\\Programs\\Python\\Python310\\lib\\unittest\\main.py',
   'PYMODULE'),
  ('unittest.runner',
   'C:\\Users\\super\\AppData\\Local\\Programs\\Python\\Python310\\lib\\unittest\\runner.py',
   'PYMODULE'),
  ('unittest.loader',
   'C:\\Users\\super\\AppData\\Local\\Programs\\Python\\Python310\\lib\\unittest\\loader.py',
   'PYMODULE'),
  ('unittest.suite',
   'C:\\Users\\super\\AppData\\Local\\Programs\\Python\\Python310\\lib\\unittest\\suite.py',
   'PYMODULE'),
  ('unittest.case',
   'C:\\Users\\super\\AppData\\Local\\Programs\\Python\\Python310\\lib\\unittest\\case.py',
   'PYMODULE'),
  ('unittest._log',
   'C:\\Users\\super\\AppData\\Local\\Programs\\Python\\Python310\\lib\\unittest\\_log.py',
   'PYMODULE'),
  ('unittest.result',
   'C:\\Users\\super\\AppData\\Local\\Programs\\Python\\Python310\\lib\\unittest\\result.py',
   'PYMODULE'),
  ('unittest.util',
   'C:\\Users\\super\\AppData\\Local\\Programs\\Python\\Python310\\lib\\unittest\\util.py',
   'PYMODULE'),
  ('asyncio',
   'C:\\Users\\super\\AppData\\Local\\Programs\\Python\\Python310\\lib\\asyncio\\__init__.py',
   'PYMODULE'),
  ('asyncio.unix_events',
   'C:\\Users\\super\\AppData\\Local\\Programs\\Python\\Python310\\lib\\asyncio\\unix_events.py',
   'PYMODULE'),
  ('asyncio.log',
   'C:\\Users\\super\\AppData\\Local\\Programs\\Python\\Python310\\lib\\asyncio\\log.py',
   'PYMODULE'),
  ('asyncio.windows_events',
   'C:\\Users\\super\\AppData\\Local\\Programs\\Python\\Python310\\lib\\asyncio\\windows_events.py',
   'PYMODULE'),
  ('asyncio.windows_utils',
   'C:\\Users\\super\\AppData\\Local\\Programs\\Python\\Python310\\lib\\asyncio\\windows_utils.py',
   'PYMODULE'),
  ('asyncio.selector_events',
   'C:\\Users\\super\\AppData\\Local\\Programs\\Python\\Python310\\lib\\asyncio\\selector_events.py',
   'PYMODULE'),
  ('asyncio.proactor_events',
   'C:\\Users\\super\\AppData\\Local\\Programs\\Python\\Python310\\lib\\asyncio\\proactor_events.py',
   'PYMODULE'),
  ('asyncio.base_subprocess',
   'C:\\Users\\super\\AppData\\Local\\Programs\\Python\\Python310\\lib\\asyncio\\base_subprocess.py',
   'PYMODULE'),
  ('asyncio.threads',
   'C:\\Users\\super\\AppData\\Local\\Programs\\Python\\Python310\\lib\\asyncio\\threads.py',
   'PYMODULE'),
  ('asyncio.subprocess',
   'C:\\Users\\super\\AppData\\Local\\Programs\\Python\\Python310\\lib\\asyncio\\subprocess.py',
   'PYMODULE'),
  ('asyncio.streams',
   'C:\\Users\\super\\AppData\\Local\\Programs\\Python\\Python310\\lib\\asyncio\\streams.py',
   'PYMODULE'),
  ('asyncio.queues',
   'C:\\Users\\super\\AppData\\Local\\Programs\\Python\\Python310\\lib\\asyncio\\queues.py',
   'PYMODULE'),
  ('asyncio.runners',
   'C:\\Users\\super\\AppData\\Local\\Programs\\Python\\Python310\\lib\\asyncio\\runners.py',
   'PYMODULE'),
  ('asyncio.base_events',
   'C:\\Users\\super\\AppData\\Local\\Programs\\Python\\Python310\\lib\\asyncio\\base_events.py',
   'PYMODULE'),
  ('asyncio.trsock',
   'C:\\Users\\super\\AppData\\Local\\Programs\\Python\\Python310\\lib\\asyncio\\trsock.py',
   'PYMODULE'),
  ('asyncio.staggered',
   'C:\\Users\\super\\AppData\\Local\\Programs\\Python\\Python310\\lib\\asyncio\\staggered.py',
   'PYMODULE'),
  ('asyncio.tasks',
   'C:\\Users\\super\\AppData\\Local\\Programs\\Python\\Python310\\lib\\asyncio\\tasks.py',
   'PYMODULE'),
  ('asyncio.locks',
   'C:\\Users\\super\\AppData\\Local\\Programs\\Python\\Python310\\lib\\asyncio\\locks.py',
   'PYMODULE'),
  ('asyncio.base_tasks',
   'C:\\Users\\super\\AppData\\Local\\Programs\\Python\\Python310\\lib\\asyncio\\base_tasks.py',
   'PYMODULE'),
  ('asyncio.mixins',
   'C:\\Users\\super\\AppData\\Local\\Programs\\Python\\Python310\\lib\\asyncio\\mixins.py',
   'PYMODULE'),
  ('asyncio.sslproto',
   'C:\\Users\\super\\AppData\\Local\\Programs\\Python\\Python310\\lib\\asyncio\\sslproto.py',
   'PYMODULE'),
  ('asyncio.transports',
   'C:\\Users\\super\\AppData\\Local\\Programs\\Python\\Python310\\lib\\asyncio\\transports.py',
   'PYMODULE'),
  ('asyncio.protocols',
   'C:\\Users\\super\\AppData\\Local\\Programs\\Python\\Python310\\lib\\asyncio\\protocols.py',
   'PYMODULE'),
  ('asyncio.futures',
   'C:\\Users\\super\\AppData\\Local\\Programs\\Python\\Python310\\lib\\asyncio\\futures.py',
   'PYMODULE'),
  ('asyncio.exceptions',
   'C:\\Users\\super\\AppData\\Local\\Programs\\Python\\Python310\\lib\\asyncio\\exceptions.py',
   'PYMODULE'),
  ('asyncio.events',
   'C:\\Users\\super\\AppData\\Local\\Programs\\Python\\Python310\\lib\\asyncio\\events.py',
   'PYMODULE'),
  ('asyncio.coroutines',
   'C:\\Users\\super\\AppData\\Local\\Programs\\Python\\Python310\\lib\\asyncio\\coroutines.py',
   'PYMODULE'),
  ('asyncio.base_futures',
   'C:\\Users\\super\\AppData\\Local\\Programs\\Python\\Python310\\lib\\asyncio\\base_futures.py',
   'PYMODULE'),
  ('asyncio.format_helpers',
   'C:\\Users\\super\\AppData\\Local\\Programs\\Python\\Python310\\lib\\asyncio\\format_helpers.py',
   'PYMODULE'),
  ('asyncio.constants',
   'C:\\Users\\super\\AppData\\Local\\Programs\\Python\\Python310\\lib\\asyncio\\constants.py',
   'PYMODULE'),
  ('setuptools._distutils._macos_compat',
   'C:\\Users\\super\\AppData\\Local\\Programs\\Python\\Python310\\lib\\site-packages\\setuptools\\_distutils\\_macos_compat.py',
   'PYMODULE'),
  ('setuptools._distutils._functools',
   'C:\\Users\\super\\AppData\\Local\\Programs\\Python\\Python310\\lib\\site-packages\\setuptools\\_distutils\\_functools.py',
   'PYMODULE'),
  ('setuptools._distutils._collections',
   'C:\\Users\\super\\AppData\\Local\\Programs\\Python\\Python310\\lib\\site-packages\\setuptools\\_distutils\\_collections.py',
   'PYMODULE'),
  ('setuptools._vendor.zipp',
   'C:\\Users\\super\\AppData\\Local\\Programs\\Python\\Python310\\lib\\site-packages\\setuptools\\_vendor\\zipp.py',
   'PYMODULE'),
  ('setuptools._vendor.typing_extensions',
   'C:\\Users\\super\\AppData\\Local\\Programs\\Python\\Python310\\lib\\site-packages\\setuptools\\_vendor\\typing_extensions.py',
   'PYMODULE'),
  ('setuptools._vendor.tomli._types',
   'C:\\Users\\super\\AppData\\Local\\Programs\\Python\\Python310\\lib\\site-packages\\setuptools\\_vendor\\tomli\\_types.py',
   'PYMODULE'),
  ('setuptools._vendor.tomli._re',
   'C:\\Users\\super\\AppData\\Local\\Programs\\Python\\Python310\\lib\\site-packages\\setuptools\\_vendor\\tomli\\_re.py',
   'PYMODULE'),
  ('setuptools._vendor.tomli._parser',
   'C:\\Users\\super\\AppData\\Local\\Programs\\Python\\Python310\\lib\\site-packages\\setuptools\\_vendor\\tomli\\_parser.py',
   'PYMODULE'),
  ('setuptools._vendor.tomli',
   'C:\\Users\\super\\AppData\\Local\\Programs\\Python\\Python310\\lib\\site-packages\\setuptools\\_vendor\\tomli\\__init__.py',
   'PYMODULE'),
  ('setuptools._vendor.pyparsing.util',
   'C:\\Users\\super\\AppData\\Local\\Programs\\Python\\Python310\\lib\\site-packages\\setuptools\\_vendor\\pyparsing\\util.py',
   'PYMODULE'),
  ('setuptools._vendor.pyparsing.unicode',
   'C:\\Users\\super\\AppData\\Local\\Programs\\Python\\Python310\\lib\\site-packages\\setuptools\\_vendor\\pyparsing\\unicode.py',
   'PYMODULE'),
  ('setuptools._vendor.pyparsing.testing',
   'C:\\Users\\super\\AppData\\Local\\Programs\\Python\\Python310\\lib\\site-packages\\setuptools\\_vendor\\pyparsing\\testing.py',
   'PYMODULE'),
  ('setuptools._vendor.pyparsing.results',
   'C:\\Users\\super\\AppData\\Local\\Programs\\Python\\Python310\\lib\\site-packages\\setuptools\\_vendor\\pyparsing\\results.py',
   'PYMODULE'),
  ('setuptools._vendor.pyparsing.helpers',
   'C:\\Users\\super\\AppData\\Local\\Programs\\Python\\Python310\\lib\\site-packages\\setuptools\\_vendor\\pyparsing\\helpers.py',
   'PYMODULE'),
  ('setuptools._vendor.pyparsing.exceptions',
   'C:\\Users\\super\\AppData\\Local\\Programs\\Python\\Python310\\lib\\site-packages\\setuptools\\_vendor\\pyparsing\\exceptions.py',
   'PYMODULE'),
  ('setuptools._vendor.pyparsing.core',
   'C:\\Users\\super\\AppData\\Local\\Programs\\Python\\Python310\\lib\\site-packages\\setuptools\\_vendor\\pyparsing\\core.py',
   'PYMODULE'),
  ('setuptools._vendor.pyparsing.diagram',
   'C:\\Users\\super\\AppData\\Local\\Programs\\Python\\Python310\\lib\\site-packages\\setuptools\\_vendor\\pyparsing\\diagram\\__init__.py',
   'PYMODULE'),
  ('setuptools._vendor.pyparsing.common',
   'C:\\Users\\super\\AppData\\Local\\Programs\\Python\\Python310\\lib\\site-packages\\setuptools\\_vendor\\pyparsing\\common.py',
   'PYMODULE'),
  ('setuptools._vendor.pyparsing.actions',
   'C:\\Users\\super\\AppData\\Local\\Programs\\Python\\Python310\\lib\\site-packages\\setuptools\\_vendor\\pyparsing\\actions.py',
   'PYMODULE'),
  ('setuptools._vendor.pyparsing',
   'C:\\Users\\super\\AppData\\Local\\Programs\\Python\\Python310\\lib\\site-packages\\setuptools\\_vendor\\pyparsing\\__init__.py',
   'PYMODULE'),
  ('setuptools._vendor.packaging.version',
   'C:\\Users\\super\\AppData\\Local\\Programs\\Python\\Python310\\lib\\site-packages\\setuptools\\_vendor\\packaging\\version.py',
   'PYMODULE'),
  ('setuptools._vendor.packaging.utils',
   'C:\\Users\\super\\AppData\\Local\\Programs\\Python\\Python310\\lib\\site-packages\\setuptools\\_vendor\\packaging\\utils.py',
   'PYMODULE'),
  ('setuptools._vendor.packaging.tags',
   'C:\\Users\\super\\AppData\\Local\\Programs\\Python\\Python310\\lib\\site-packages\\setuptools\\_vendor\\packaging\\tags.py',
   'PYMODULE'),
  ('setuptools._vendor.packaging.specifiers',
   'C:\\Users\\super\\AppData\\Local\\Programs\\Python\\Python310\\lib\\site-packages\\setuptools\\_vendor\\packaging\\specifiers.py',
   'PYMODULE'),
  ('setuptools._vendor.packaging.requirements',
   'C:\\Users\\super\\AppData\\Local\\Programs\\Python\\Python310\\lib\\site-packages\\setuptools\\_vendor\\packaging\\requirements.py',
   'PYMODULE'),
  ('setuptools._vendor.packaging.markers',
   'C:\\Users\\super\\AppData\\Local\\Programs\\Python\\Python310\\lib\\site-packages\\setuptools\\_vendor\\packaging\\markers.py',
   'PYMODULE'),
  ('setuptools._vendor.packaging._structures',
   'C:\\Users\\super\\AppData\\Local\\Programs\\Python\\Python310\\lib\\site-packages\\setuptools\\_vendor\\packaging\\_structures.py',
   'PYMODULE'),
  ('setuptools._vendor.packaging._musllinux',
   'C:\\Users\\super\\AppData\\Local\\Programs\\Python\\Python310\\lib\\site-packages\\setuptools\\_vendor\\packaging\\_musllinux.py',
   'PYMODULE'),
  ('setuptools._vendor.packaging._manylinux',
   'C:\\Users\\super\\AppData\\Local\\Programs\\Python\\Python310\\lib\\site-packages\\setuptools\\_vendor\\packaging\\_manylinux.py',
   'PYMODULE'),
  ('setuptools._vendor.packaging.__about__',
   'C:\\Users\\super\\AppData\\Local\\Programs\\Python\\Python310\\lib\\site-packages\\setuptools\\_vendor\\packaging\\__about__.py',
   'PYMODULE'),
  ('setuptools._vendor.packaging',
   'C:\\Users\\super\\AppData\\Local\\Programs\\Python\\Python310\\lib\\site-packages\\setuptools\\_vendor\\packaging\\__init__.py',
   'PYMODULE'),
  ('setuptools._vendor.ordered_set',
   'C:\\Users\\super\\AppData\\Local\\Programs\\Python\\Python310\\lib\\site-packages\\setuptools\\_vendor\\ordered_set.py',
   'PYMODULE'),
  ('setuptools._vendor.more_itertools.recipes',
   'C:\\Users\\super\\AppData\\Local\\Programs\\Python\\Python310\\lib\\site-packages\\setuptools\\_vendor\\more_itertools\\recipes.py',
   'PYMODULE'),
  ('setuptools._vendor.more_itertools.more',
   'C:\\Users\\super\\AppData\\Local\\Programs\\Python\\Python310\\lib\\site-packages\\setuptools\\_vendor\\more_itertools\\more.py',
   'PYMODULE'),
  ('setuptools._vendor.more_itertools',
   'C:\\Users\\super\\AppData\\Local\\Programs\\Python\\Python310\\lib\\site-packages\\setuptools\\_vendor\\more_itertools\\__init__.py',
   'PYMODULE'),
  ('setuptools._vendor.jaraco.text',
   'C:\\Users\\super\\AppData\\Local\\Programs\\Python\\Python310\\lib\\site-packages\\setuptools\\_vendor\\jaraco\\text\\__init__.py',
   'PYMODULE'),
  ('setuptools.extern',
   'C:\\Users\\super\\AppData\\Local\\Programs\\Python\\Python310\\lib\\site-packages\\setuptools\\extern\\__init__.py',
   'PYMODULE'),
  ('setuptools._vendor.jaraco.functools',
   'C:\\Users\\super\\AppData\\Local\\Programs\\Python\\Python310\\lib\\site-packages\\setuptools\\_vendor\\jaraco\\functools.py',
   'PYMODULE'),
  ('setuptools._vendor.jaraco.context',
   'C:\\Users\\super\\AppData\\Local\\Programs\\Python\\Python310\\lib\\site-packages\\setuptools\\_vendor\\jaraco\\context.py',
   'PYMODULE'),
  ('setuptools._vendor.jaraco',
   'C:\\Users\\super\\AppData\\Local\\Programs\\Python\\Python310\\lib\\site-packages\\setuptools\\_vendor\\jaraco\\__init__.py',
   'PYMODULE'),
  ('setuptools._vendor.importlib_resources.simple',
   'C:\\Users\\super\\AppData\\Local\\Programs\\Python\\Python310\\lib\\site-packages\\setuptools\\_vendor\\importlib_resources\\simple.py',
   'PYMODULE'),
  ('setuptools._vendor.importlib_resources.readers',
   'C:\\Users\\super\\AppData\\Local\\Programs\\Python\\Python310\\lib\\site-packages\\setuptools\\_vendor\\importlib_resources\\readers.py',
   'PYMODULE'),
  ('setuptools._vendor.importlib_resources.abc',
   'C:\\Users\\super\\AppData\\Local\\Programs\\Python\\Python310\\lib\\site-packages\\setuptools\\_vendor\\importlib_resources\\abc.py',
   'PYMODULE'),
  ('setuptools._vendor.importlib_resources._legacy',
   'C:\\Users\\super\\AppData\\Local\\Programs\\Python\\Python310\\lib\\site-packages\\setuptools\\_vendor\\importlib_resources\\_legacy.py',
   'PYMODULE'),
  ('setuptools._vendor.importlib_resources._itertools',
   'C:\\Users\\super\\AppData\\Local\\Programs\\Python\\Python310\\lib\\site-packages\\setuptools\\_vendor\\importlib_resources\\_itertools.py',
   'PYMODULE'),
  ('setuptools._vendor.importlib_resources._compat',
   'C:\\Users\\super\\AppData\\Local\\Programs\\Python\\Python310\\lib\\site-packages\\setuptools\\_vendor\\importlib_resources\\_compat.py',
   'PYMODULE'),
  ('setuptools._vendor.importlib_resources._common',
   'C:\\Users\\super\\AppData\\Local\\Programs\\Python\\Python310\\lib\\site-packages\\setuptools\\_vendor\\importlib_resources\\_common.py',
   'PYMODULE'),
  ('setuptools._vendor.importlib_resources._adapters',
   'C:\\Users\\super\\AppData\\Local\\Programs\\Python\\Python310\\lib\\site-packages\\setuptools\\_vendor\\importlib_resources\\_adapters.py',
   'PYMODULE'),
  ('setuptools._vendor.importlib_resources',
   'C:\\Users\\super\\AppData\\Local\\Programs\\Python\\Python310\\lib\\site-packages\\setuptools\\_vendor\\importlib_resources\\__init__.py',
   'PYMODULE'),
  ('setuptools._vendor.importlib_metadata._text',
   'C:\\Users\\super\\AppData\\Local\\Programs\\Python\\Python310\\lib\\site-packages\\setuptools\\_vendor\\importlib_metadata\\_text.py',
   'PYMODULE'),
  ('setuptools._vendor.importlib_metadata._meta',
   'C:\\Users\\super\\AppData\\Local\\Programs\\Python\\Python310\\lib\\site-packages\\setuptools\\_vendor\\importlib_metadata\\_meta.py',
   'PYMODULE'),
  ('setuptools._vendor.importlib_metadata._itertools',
   'C:\\Users\\super\\AppData\\Local\\Programs\\Python\\Python310\\lib\\site-packages\\setuptools\\_vendor\\importlib_metadata\\_itertools.py',
   'PYMODULE'),
  ('setuptools._vendor.importlib_metadata._functools',
   'C:\\Users\\super\\AppData\\Local\\Programs\\Python\\Python310\\lib\\site-packages\\setuptools\\_vendor\\importlib_metadata\\_functools.py',
   'PYMODULE'),
  ('setuptools._vendor.importlib_metadata._compat',
   'C:\\Users\\super\\AppData\\Local\\Programs\\Python\\Python310\\lib\\site-packages\\setuptools\\_vendor\\importlib_metadata\\_compat.py',
   'PYMODULE'),
  ('setuptools._vendor.importlib_metadata._collections',
   'C:\\Users\\super\\AppData\\Local\\Programs\\Python\\Python310\\lib\\site-packages\\setuptools\\_vendor\\importlib_metadata\\_collections.py',
   'PYMODULE'),
  ('setuptools._vendor.importlib_metadata._adapters',
   'C:\\Users\\super\\AppData\\Local\\Programs\\Python\\Python310\\lib\\site-packages\\setuptools\\_vendor\\importlib_metadata\\_adapters.py',
   'PYMODULE'),
  ('setuptools._vendor.importlib_metadata',
   'C:\\Users\\super\\AppData\\Local\\Programs\\Python\\Python310\\lib\\site-packages\\setuptools\\_vendor\\importlib_metadata\\__init__.py',
   'PYMODULE'),
  ('setuptools._vendor',
   'C:\\Users\\super\\AppData\\Local\\Programs\\Python\\Python310\\lib\\site-packages\\setuptools\\_vendor\\__init__.py',
   'PYMODULE'),
  ('setuptools.msvc',
   'C:\\Users\\super\\AppData\\Local\\Programs\\Python\\Python310\\lib\\site-packages\\setuptools\\msvc.py',
   'PYMODULE'),
  ('setuptools.logging',
   'C:\\Users\\super\\AppData\\Local\\Programs\\Python\\Python310\\lib\\site-packages\\setuptools\\logging.py',
   'PYMODULE'),
  ('setuptools.monkey',
   'C:\\Users\\super\\AppData\\Local\\Programs\\Python\\Python310\\lib\\site-packages\\setuptools\\monkey.py',
   'PYMODULE'),
  ('setuptools.discovery',
   'C:\\Users\\super\\AppData\\Local\\Programs\\Python\\Python310\\lib\\site-packages\\setuptools\\discovery.py',
   'PYMODULE'),
  ('setuptools.errors',
   'C:\\Users\\super\\AppData\\Local\\Programs\\Python\\Python310\\lib\\site-packages\\setuptools\\errors.py',
   'PYMODULE'),
  ('setuptools.depends',
   'C:\\Users\\super\\AppData\\Local\\Programs\\Python\\Python310\\lib\\site-packages\\setuptools\\depends.py',
   'PYMODULE'),
  ('setuptools._imp',
   'C:\\Users\\super\\AppData\\Local\\Programs\\Python\\Python310\\lib\\site-packages\\setuptools\\_imp.py',
   'PYMODULE'),
  ('setuptools.py34compat',
   'C:\\Users\\super\\AppData\\Local\\Programs\\Python\\Python310\\lib\\site-packages\\setuptools\\py34compat.py',
   'PYMODULE'),
  ('setuptools.dist',
   'C:\\Users\\super\\AppData\\Local\\Programs\\Python\\Python310\\lib\\site-packages\\setuptools\\dist.py',
   'PYMODULE'),
  ('setuptools.installer',
   'C:\\Users\\super\\AppData\\Local\\Programs\\Python\\Python310\\lib\\site-packages\\setuptools\\installer.py',
   'PYMODULE'),
  ('setuptools.wheel',
   'C:\\Users\\super\\AppData\\Local\\Programs\\Python\\Python310\\lib\\site-packages\\setuptools\\wheel.py',
   'PYMODULE'),
  ('setuptools.archive_util',
   'C:\\Users\\super\\AppData\\Local\\Programs\\Python\\Python310\\lib\\site-packages\\setuptools\\archive_util.py',
   'PYMODULE'),
  ('setuptools._path',
   'C:\\Users\\super\\AppData\\Local\\Programs\\Python\\Python310\\lib\\site-packages\\setuptools\\_path.py',
   'PYMODULE'),
  ('setuptools.command.egg_info',
   'C:\\Users\\super\\AppData\\Local\\Programs\\Python\\Python310\\lib\\site-packages\\setuptools\\command\\egg_info.py',
   'PYMODULE'),
  ('setuptools.glob',
   'C:\\Users\\super\\AppData\\Local\\Programs\\Python\\Python310\\lib\\site-packages\\setuptools\\glob.py',
   'PYMODULE'),
  ('setuptools.unicode_utils',
   'C:\\Users\\super\\AppData\\Local\\Programs\\Python\\Python310\\lib\\site-packages\\setuptools\\unicode_utils.py',
   'PYMODULE'),
  ('setuptools.command.bdist_egg',
   'C:\\Users\\super\\AppData\\Local\\Programs\\Python\\Python310\\lib\\site-packages\\setuptools\\command\\bdist_egg.py',
   'PYMODULE'),
  ('setuptools.command.setopt',
   'C:\\Users\\super\\AppData\\Local\\Programs\\Python\\Python310\\lib\\site-packages\\setuptools\\command\\setopt.py',
   'PYMODULE'),
  ('setuptools.command.sdist',
   'C:\\Users\\super\\AppData\\Local\\Programs\\Python\\Python310\\lib\\site-packages\\setuptools\\command\\sdist.py',
   'PYMODULE'),
  ('setuptools.command.py36compat',
   'C:\\Users\\super\\AppData\\Local\\Programs\\Python\\Python310\\lib\\site-packages\\setuptools\\command\\py36compat.py',
   'PYMODULE'),
  ('distutils.command.sdist',
   'C:\\Users\\super\\AppData\\Local\\Programs\\Python\\Python310\\lib\\distutils\\command\\sdist.py',
   'PYMODULE'),
  ('setuptools.config.pyprojecttoml',
   'C:\\Users\\super\\AppData\\Local\\Programs\\Python\\Python310\\lib\\site-packages\\setuptools\\config\\pyprojecttoml.py',
   'PYMODULE'),
  ('setuptools.config._validate_pyproject',
   'C:\\Users\\super\\AppData\\Local\\Programs\\Python\\Python310\\lib\\site-packages\\setuptools\\config\\_validate_pyproject\\__init__.py',
   'PYMODULE'),
  ('setuptools.config._validate_pyproject.fastjsonschema_validations',
   'C:\\Users\\super\\AppData\\Local\\Programs\\Python\\Python310\\lib\\site-packages\\setuptools\\config\\_validate_pyproject\\fastjsonschema_validations.py',
   'PYMODULE'),
  ('setuptools.config._validate_pyproject.fastjsonschema_exceptions',
   'C:\\Users\\super\\AppData\\Local\\Programs\\Python\\Python310\\lib\\site-packages\\setuptools\\config\\_validate_pyproject\\fastjsonschema_exceptions.py',
   'PYMODULE'),
  ('setuptools.config._validate_pyproject.extra_validations',
   'C:\\Users\\super\\AppData\\Local\\Programs\\Python\\Python310\\lib\\site-packages\\setuptools\\config\\_validate_pyproject\\extra_validations.py',
   'PYMODULE'),
  ('setuptools.config._validate_pyproject.error_reporting',
   'C:\\Users\\super\\AppData\\Local\\Programs\\Python\\Python310\\lib\\site-packages\\setuptools\\config\\_validate_pyproject\\error_reporting.py',
   'PYMODULE'),
  ('setuptools.config._validate_pyproject.formats',
   'C:\\Users\\super\\AppData\\Local\\Programs\\Python\\Python310\\lib\\site-packages\\setuptools\\config\\_validate_pyproject\\formats.py',
   'PYMODULE'),
  ('setuptools.config._apply_pyprojecttoml',
   'C:\\Users\\super\\AppData\\Local\\Programs\\Python\\Python310\\lib\\site-packages\\setuptools\\config\\_apply_pyprojecttoml.py',
   'PYMODULE'),
  ('setuptools.config.expand',
   'C:\\Users\\super\\AppData\\Local\\Programs\\Python\\Python310\\lib\\site-packages\\setuptools\\config\\expand.py',
   'PYMODULE'),
  ('setuptools.config.setupcfg',
   'C:\\Users\\super\\AppData\\Local\\Programs\\Python\\Python310\\lib\\site-packages\\setuptools\\config\\setupcfg.py',
   'PYMODULE'),
  ('setuptools.config',
   'C:\\Users\\super\\AppData\\Local\\Programs\\Python\\Python310\\lib\\site-packages\\setuptools\\config\\__init__.py',
   'PYMODULE'),
  ('setuptools.command',
   'C:\\Users\\super\\AppData\\Local\\Programs\\Python\\Python310\\lib\\site-packages\\setuptools\\command\\__init__.py',
   'PYMODULE'),
  ('distutils.command.bdist',
   'C:\\Users\\super\\AppData\\Local\\Programs\\Python\\Python310\\lib\\distutils\\command\\bdist.py',
   'PYMODULE'),
  ('setuptools._importlib',
   'C:\\Users\\super\\AppData\\Local\\Programs\\Python\\Python310\\lib\\site-packages\\setuptools\\_importlib.py',
   'PYMODULE'),
  ('setuptools._entry_points',
   'C:\\Users\\super\\AppData\\Local\\Programs\\Python\\Python310\\lib\\site-packages\\setuptools\\_entry_points.py',
   'PYMODULE'),
  ('setuptools._itertools',
   'C:\\Users\\super\\AppData\\Local\\Programs\\Python\\Python310\\lib\\site-packages\\setuptools\\_itertools.py',
   'PYMODULE'),
  ('setuptools._reqs',
   'C:\\Users\\super\\AppData\\Local\\Programs\\Python\\Python310\\lib\\site-packages\\setuptools\\_reqs.py',
   'PYMODULE'),
  ('setuptools.windows_support',
   'C:\\Users\\super\\AppData\\Local\\Programs\\Python\\Python310\\lib\\site-packages\\setuptools\\windows_support.py',
   'PYMODULE'),
  ('setuptools.extension',
   'C:\\Users\\super\\AppData\\Local\\Programs\\Python\\Python310\\lib\\site-packages\\setuptools\\extension.py',
   'PYMODULE'),
  ('setuptools.version',
   'C:\\Users\\super\\AppData\\Local\\Programs\\Python\\Python310\\lib\\site-packages\\setuptools\\version.py',
   'PYMODULE'),
  ('setuptools._deprecation_warning',
   'C:\\Users\\super\\AppData\\Local\\Programs\\Python\\Python310\\lib\\site-packages\\setuptools\\_deprecation_warning.py',
   'PYMODULE'),
  ('_distutils_hack.override',
   'C:\\Users\\super\\AppData\\Local\\Programs\\Python\\Python310\\lib\\site-packages\\_distutils_hack\\override.py',
   'PYMODULE'),
  ('cffi.verifier',
   'C:\\Users\\super\\AppData\\Local\\Programs\\Python\\Python310\\lib\\site-packages\\cffi\\verifier.py',
   'PYMODULE'),
  ('cffi.lock',
   'C:\\Users\\super\\AppData\\Local\\Programs\\Python\\Python310\\lib\\site-packages\\cffi\\lock.py',
   'PYMODULE'),
  ('cffi.pkgconfig',
   'C:\\Users\\super\\AppData\\Local\\Programs\\Python\\Python310\\lib\\site-packages\\cffi\\pkgconfig.py',
   'PYMODULE'),
  ('cffi.vengine_cpy',
   'C:\\Users\\super\\AppData\\Local\\Programs\\Python\\Python310\\lib\\site-packages\\cffi\\vengine_cpy.py',
   'PYMODULE'),
  ('cffi.vengine_gen',
   'C:\\Users\\super\\AppData\\Local\\Programs\\Python\\Python310\\lib\\site-packages\\cffi\\vengine_gen.py',
   'PYMODULE'),
  ('cffi.ffiplatform',
   'C:\\Users\\super\\AppData\\Local\\Programs\\Python\\Python310\\lib\\site-packages\\cffi\\ffiplatform.py',
   'PYMODULE'),
  ('cffi.cparser',
   'C:\\Users\\super\\AppData\\Local\\Programs\\Python\\Python310\\lib\\site-packages\\cffi\\cparser.py',
   'PYMODULE'),
  ('pycparser.lextab',
   'C:\\Users\\super\\AppData\\Local\\Programs\\Python\\Python310\\lib\\site-packages\\pycparser\\lextab.py',
   'PYMODULE'),
  ('pycparser.yacctab',
   'C:\\Users\\super\\AppData\\Local\\Programs\\Python\\Python310\\lib\\site-packages\\pycparser\\yacctab.py',
   'PYMODULE'),
  ('pycparser',
   'C:\\Users\\super\\AppData\\Local\\Programs\\Python\\Python310\\lib\\site-packages\\pycparser\\__init__.py',
   'PYMODULE'),
  ('pycparser.c_parser',
   'C:\\Users\\super\\AppData\\Local\\Programs\\Python\\Python310\\lib\\site-packages\\pycparser\\c_parser.py',
   'PYMODULE'),
  ('pycparser.ast_transforms',
   'C:\\Users\\super\\AppData\\Local\\Programs\\Python\\Python310\\lib\\site-packages\\pycparser\\ast_transforms.py',
   'PYMODULE'),
  ('pycparser.plyparser',
   'C:\\Users\\super\\AppData\\Local\\Programs\\Python\\Python310\\lib\\site-packages\\pycparser\\plyparser.py',
   'PYMODULE'),
  ('pycparser.c_lexer',
   'C:\\Users\\super\\AppData\\Local\\Programs\\Python\\Python310\\lib\\site-packages\\pycparser\\c_lexer.py',
   'PYMODULE'),
  ('pycparser.ply.lex',
   'C:\\Users\\super\\AppData\\Local\\Programs\\Python\\Python310\\lib\\site-packages\\pycparser\\ply\\lex.py',
   'PYMODULE'),
  ('pycparser.ply.yacc',
   'C:\\Users\\super\\AppData\\Local\\Programs\\Python\\Python310\\lib\\site-packages\\pycparser\\ply\\yacc.py',
   'PYMODULE'),
  ('pycparser.ply',
   'C:\\Users\\super\\AppData\\Local\\Programs\\Python\\Python310\\lib\\site-packages\\pycparser\\ply\\__init__.py',
   'PYMODULE'),
  ('pycparser.c_ast',
   'C:\\Users\\super\\AppData\\Local\\Programs\\Python\\Python310\\lib\\site-packages\\pycparser\\c_ast.py',
   'PYMODULE'),
  ('cffi.commontypes',
   'C:\\Users\\super\\AppData\\Local\\Programs\\Python\\Python310\\lib\\site-packages\\cffi\\commontypes.py',
   'PYMODULE'),
  ('cffi.model',
   'C:\\Users\\super\\AppData\\Local\\Programs\\Python\\Python310\\lib\\site-packages\\cffi\\model.py',
   'PYMODULE'),
  ('PIL._util',
   'C:\\Users\\super\\AppData\\Local\\Programs\\Python\\Python310\\lib\\site-packages\\PIL\\_util.py',
   'PYMODULE'),
  ('PIL._deprecate',
   'C:\\Users\\super\\AppData\\Local\\Programs\\Python\\Python310\\lib\\site-packages\\PIL\\_deprecate.py',
   'PYMODULE'),
  ('PIL._binary',
   'C:\\Users\\super\\AppData\\Local\\Programs\\Python\\Python310\\lib\\site-packages\\PIL\\_binary.py',
   'PYMODULE'),
  ('PIL.TiffTags',
   'C:\\Users\\super\\AppData\\Local\\Programs\\Python\\Python310\\lib\\site-packages\\PIL\\TiffTags.py',
   'PYMODULE'),
  ('PIL.ImageMode',
   'C:\\Users\\super\\AppData\\Local\\Programs\\Python\\Python310\\lib\\site-packages\\PIL\\ImageMode.py',
   'PYMODULE'),
  ('PIL.ImageGrab',
   'C:\\Users\\super\\AppData\\Local\\Programs\\Python\\Python310\\lib\\site-packages\\PIL\\ImageGrab.py',
   'PYMODULE'),
  ('PIL',
   'C:\\Users\\super\\AppData\\Local\\Programs\\Python\\Python310\\lib\\site-packages\\PIL\\__init__.py',
   'PYMODULE'),
  ('PIL._version',
   'C:\\Users\\super\\AppData\\Local\\Programs\\Python\\Python310\\lib\\site-packages\\PIL\\_version.py',
   'PYMODULE'),
  ('configparser',
   'C:\\Users\\super\\AppData\\Local\\Programs\\Python\\Python310\\lib\\configparser.py',
   'PYMODULE'),
  ('json',
   'C:\\Users\\super\\AppData\\Local\\Programs\\Python\\Python310\\lib\\json\\__init__.py',
   'PYMODULE'),
  ('json.encoder',
   'C:\\Users\\super\\AppData\\Local\\Programs\\Python\\Python310\\lib\\json\\encoder.py',
   'PYMODULE'),
  ('json.decoder',
   'C:\\Users\\super\\AppData\\Local\\Programs\\Python\\Python310\\lib\\json\\decoder.py',
   'PYMODULE'),
  ('json.scanner',
   'C:\\Users\\super\\AppData\\Local\\Programs\\Python\\Python310\\lib\\json\\scanner.py',
   'PYMODULE'),
  ('difflib',
   'C:\\Users\\super\\AppData\\Local\\Programs\\Python\\Python310\\lib\\difflib.py',
   'PYMODULE'),
  ('uuid',
   'C:\\Users\\super\\AppData\\Local\\Programs\\Python\\Python310\\lib\\uuid.py',
   'PYMODULE'),
  ('tkinter.font',
   'C:\\Users\\super\\AppData\\Local\\Programs\\Python\\Python310\\lib\\tkinter\\font.py',
   'PYMODULE'),
  ('tkinter.ttk',
   'C:\\Users\\super\\AppData\\Local\\Programs\\Python\\Python310\\lib\\tkinter\\ttk.py',
   'PYMODULE'),
  ('tkinter.colorchooser',
   'C:\\Users\\super\\AppData\\Local\\Programs\\Python\\Python310\\lib\\tkinter\\colorchooser.py',
   'PYMODULE'),
  ('tkinter.commondialog',
   'C:\\Users\\super\\AppData\\Local\\Programs\\Python\\Python310\\lib\\tkinter\\commondialog.py',
   'PYMODULE'),
  ('tkinter.filedialog',
   'C:\\Users\\super\\AppData\\Local\\Programs\\Python\\Python310\\lib\\tkinter\\filedialog.py',
   'PYMODULE'),
  ('tkinter.simpledialog',
   'C:\\Users\\super\\AppData\\Local\\Programs\\Python\\Python310\\lib\\tkinter\\simpledialog.py',
   'PYMODULE'),
  ('tkinter.messagebox',
   'C:\\Users\\super\\AppData\\Local\\Programs\\Python\\Python310\\lib\\tkinter\\messagebox.py',
   'PYMODULE'),
  ('tkinter.dialog',
   'C:\\Users\\super\\AppData\\Local\\Programs\\Python\\Python310\\lib\\tkinter\\dialog.py',
   'PYMODULE'),
  ('tkinter',
   'C:\\Users\\super\\AppData\\Local\\Programs\\Python\\Python310\\lib\\tkinter\\__init__.py',
   'PYMODULE'),
  ('tkinter.constants',
   'C:\\Users\\super\\AppData\\Local\\Programs\\Python\\Python310\\lib\\tkinter\\constants.py',
   'PYMODULE')])
